%YAML 1.1
%TAG !u! tag:unity3d.com,2011:
--- !u!21 &2100000
Material:
  serializedVersion: 6
  m_ObjectHideFlags: 2
  m_CorrespondingSourceObject: {fileID: 0}
  m_PrefabInstance: {fileID: 0}
  m_PrefabAsset: {fileID: 0}
  m_Name: Polyline 2D Multiplicative [IS_JOIN_MESH][JOIN_MITER]
  m_Shader: {fileID: 4800000, guid: 30194338a642df6469d34c179fdf8fdd, type: 3}
  m_ShaderKeywords: IS_JOIN_MESH JOIN_MITER
  m_LightmapFlags: 4
  m_EnableInstancingVariants: 1
  m_DoubleSidedGI: 0
  m_CustomRenderQueue: -1
  stringTagMap: {}
  disabledShaderPasses: []
  m_SavedProperties:
    serializedVersion: 3
    m_TexEnvs: []
    m_Floats:
    - _StencilComp: 8
    - _StencilID: 0
    - _StencilOpPass: 0
    - _StencilReadMask: 255
    - _StencilWriteMask: 255
    - _ZOffsetFactor: 0
    - _ZOffsetUnits: 0
    - _ZTest: 4
    m_Colors: []
  m_BuildTextureStacks: []
