# Blender v2.92.0 OBJ File: 'Polish.blend'
# www.blender.org
o OrangeNailPolish.004
v -0.071853 0.021171 0.091271
v -0.120215 0.029326 0.040145
v -0.125144 0.023162 0.021724
v -0.125648 0.034667 0.020030
v -0.110246 0.026583 0.053452
v -0.109371 0.037289 0.054541
v -0.111566 0.006129 0.033977
v -0.119555 0.011881 0.003555
v -0.114854 0.005745 -0.016963
v -0.112743 0.053135 0.034992
v -0.104188 0.001902 0.033036
v -0.088409 0.014754 0.071173
v -0.099987 0.007826 0.051596
v -0.108857 0.084716 0.035179
v -0.119085 0.051131 0.010777
v -0.092658 0.030000 0.072641
v -0.083494 0.056691 0.076110
v -0.099784 0.054137 0.056820
v -0.111952 0.090786 0.017668
v -0.100612 0.117634 0.014011
v -0.081505 0.091138 0.070547
v -0.093477 0.108723 0.042675
v -0.088055 0.151503 0.030610
v -0.092743 0.158159 0.009323
v -0.080445 0.203449 0.030972
v -0.083517 0.186376 0.016416
v -0.081534 0.247492 0.009863
v -0.075601 0.038118 0.087620
v -0.059098 0.028067 0.100925
v -0.060472 0.006160 0.089653
v -0.044008 0.024486 0.105446
v -0.048221 0.010196 0.098885
v -0.028157 0.006849 0.102238
v -0.025455 0.022843 0.109547
v -0.033213 0.047472 0.100997
v -0.023631 0.033675 0.109210
v -0.010362 0.040387 0.109968
v -0.012117 0.055917 0.104906
v 0.005364 0.008850 0.103465
v -0.062085 0.088105 0.087181
v -0.048780 0.051335 0.098300
v -0.021361 0.085766 0.102230
v -0.009839 0.031296 0.110073
v 0.001154 0.000929 0.090715
v -0.046116 0.109195 0.084777
v -0.018675 0.109466 0.091282
v -0.020462 0.144925 0.082894
v 0.000779 0.160115 0.080049
v -0.056275 0.002092 0.083899
v -0.059854 0.000364 0.067439
v -0.069137 0.110667 0.069706
v -0.059536 0.157022 0.062475
v -0.068726 0.194924 0.041470
v -0.062792 0.222763 0.050743
v -0.068046 0.185183 0.040907
v -0.060800 0.207413 0.051108
v -0.030643 0.229854 0.060045
v -0.034297 0.203907 0.057733
v -0.020420 0.232213 0.060191
v -0.006487 0.216987 0.055829
v -0.012678 0.233752 0.057967
v -0.078134 0.228044 0.030776
v -0.047472 0.188725 0.057195
v -0.022652 0.181382 0.068625
v -0.048778 0.301496 0.032376
v -0.070716 0.250760 0.030589
v -0.066042 0.287039 0.017166
v -0.055398 0.258969 0.042569
v -0.055819 0.309146 0.012931
v -0.030247 0.265715 0.048850
v -0.029722 0.300421 0.042302
v -0.040980 0.302459 0.038632
v -0.021756 0.318813 0.045527
v -0.072522 0.388378 -0.006860
v -0.060722 0.361663 0.020363
v -0.064175 0.379497 0.015572
v -0.069974 0.398904 0.010227
v -0.051564 0.361298 0.051928
v -0.050593 0.377306 0.054421
v -0.052357 0.347461 0.037298
v -0.060475 0.370820 0.040791
v -0.049840 0.317478 0.027146
v -0.035615 0.348327 0.053843
v -0.039507 0.382531 0.059374
v -0.044481 0.343688 0.044706
v -0.025458 0.367893 0.071076
v -0.023679 0.336322 0.049997
v -0.039657 0.321671 0.040751
v -0.044091 0.393131 0.045445
v -0.019476 0.359092 0.070750
v -0.010702 0.391559 0.062261
v -0.010141 0.340980 0.053753
v -0.000347 0.357279 0.070390
v -0.003777 0.378953 0.070608
v 0.000753 0.330000 0.046147
v -0.059801 0.393967 0.029563
v -0.057184 0.335990 0.010449
v -0.073623 0.416001 0.001267
v -0.064661 0.421815 0.008357
v -0.047590 0.428864 0.007025
v -0.028705 0.446309 0.004151
v -0.052504 0.418910 0.018720
v -0.014601 0.403856 0.043590
v -0.011048 0.429415 0.027595
v -0.032689 0.432973 0.012603
v -0.021653 0.468962 0.017215
v -0.010801 0.458935 0.024649
v -0.022540 0.442170 0.017560
v -0.008941 0.513262 0.020090
v -0.011552 0.523207 0.009982
v -0.020758 0.508761 0.001712
v 0.000835 0.526983 0.004845
v -0.021433 0.486930 0.005846
v -0.007274 0.490731 0.020663
v 0.056295 0.000244 0.066788
v -0.124346 0.032823 -0.044572
v -0.120653 0.031059 -0.061169
v -0.120847 0.017782 -0.039350
v -0.108421 0.007357 -0.051186
v -0.112353 0.023572 -0.070656
v -0.112095 0.034261 -0.075620
v -0.104505 0.000723 -0.018865
v -0.094965 0.001436 -0.062263
v -0.096367 0.005879 -0.073256
v -0.088277 0.000072 -0.041578
v -0.116822 0.087491 -0.011053
v -0.118558 0.058166 -0.035882
v -0.108061 0.052904 -0.068655
v -0.103183 0.118926 -0.009415
v -0.112064 0.089736 -0.041120
v -0.101868 0.112336 -0.039388
v -0.098562 0.140746 -0.030549
v -0.100540 0.141770 -0.014682
v -0.095784 0.090358 -0.075747
v -0.079571 0.111084 -0.080293
v -0.083816 0.155096 -0.057475
v -0.082304 0.186585 -0.033493
v -0.087553 0.185226 -0.011970
v -0.090898 0.203846 -0.000483
v -0.082657 0.212572 -0.037158
v -0.079267 0.236271 -0.030488
v -0.079514 0.252365 -0.012459
v -0.082121 0.409753 -0.020127
v -0.094549 0.030130 -0.095961
v -0.101588 0.032217 -0.088752
v -0.079525 0.015108 -0.098971
v -0.073307 0.188318 -0.050792
v -0.067472 0.212859 -0.058784
v -0.065681 0.237753 -0.054108
v -0.061393 0.171393 -0.076426
v -0.058688 0.191926 -0.068142
v -0.051129 0.233729 -0.067129
v -0.031212 0.206883 -0.076464
v -0.027588 0.243126 -0.073480
v 0.009793 0.245952 -0.076253
v -0.009088 0.266168 -0.069142
v -0.004512 0.245830 -0.076767
v -0.066270 0.291082 -0.016423
v -0.057436 0.310316 -0.010024
v -0.059969 0.283640 -0.035795
v -0.051579 0.309880 -0.031399
v -0.052087 0.266082 -0.051713
v -0.043419 0.297619 -0.048130
v -0.030927 0.268762 -0.063230
v -0.013525 0.323150 -0.060112
v -0.060523 0.372050 -0.025545
v -0.054073 0.372948 -0.033677
v -0.039731 0.371616 -0.042098
v -0.064297 0.369751 -0.010249
v -0.051220 0.383952 -0.041986
v -0.058197 0.337361 -0.010671
v -0.051004 0.343814 -0.030666
v -0.038420 0.340357 -0.045203
v -0.011334 0.363149 -0.049904
v -0.010168 0.395444 -0.059321
v -0.080607 0.405800 -0.014549
v -0.073381 0.423889 -0.008360
v -0.070973 0.422088 -0.035563
v -0.070566 0.404619 -0.040978
v -0.070875 0.415825 -0.040886
v -0.060950 0.429488 -0.005664
v -0.063884 0.429322 -0.019956
v -0.059933 0.408996 -0.050087
v -0.031650 0.431723 -0.045533
v -0.046436 0.418785 -0.053938
v -0.038357 0.435209 -0.009853
v -0.023809 0.445859 -0.032267
v -0.030314 0.449112 -0.009133
v -0.021266 0.455299 -0.030519
v -0.008272 0.449887 -0.038415
v -0.014557 0.477416 -0.034687
v -0.005808 0.475385 -0.037688
v -0.029457 0.470027 -0.009610
v -0.031583 0.437448 -0.031121
v -0.021236 0.479914 -0.028824
v -0.030350 0.409260 -0.059261
v -0.022205 0.421817 -0.060646
v -0.010862 0.439525 -0.042508
v -0.021446 0.499192 -0.005701
v -0.020910 0.492567 -0.016446
v -0.019720 0.510554 -0.020508
v -0.016348 0.516472 -0.009394
v -0.013148 0.493211 -0.027208
v -0.008909 0.521912 -0.021944
v -0.002906 0.496629 -0.031228
v -0.063120 0.001151 -0.091288
v -0.063441 0.006524 -0.105834
v -0.065682 0.017718 -0.112928
v -0.027201 0.000784 -0.108778
v -0.029072 0.007071 -0.120733
v -0.020742 0.022722 -0.131763
v 0.007337 0.005317 -0.121192
v -0.066701 0.029777 -0.118357
v -0.053643 0.030511 -0.126627
v -0.021977 0.052489 -0.130738
v -0.025089 0.085892 -0.122559
v -0.001282 0.027479 -0.131737
v -0.023107 0.114164 -0.111261
v -0.002457 0.103335 -0.117809
v -0.068819 0.090939 -0.102571
v -0.056637 0.110912 -0.099733
v -0.043789 0.085310 -0.118561
v -0.030921 0.154746 -0.100293
v -0.012262 0.157229 -0.103019
v -0.015165 0.210831 -0.077922
v 0.024061 0.001813 0.094155
v 0.047063 0.007506 0.092507
v 0.038402 0.013584 0.101523
v 0.059748 0.006534 0.081876
v 0.063229 0.016644 0.087584
v 0.024866 0.029924 0.109429
v 0.024343 0.050801 0.104754
v 0.012141 0.086993 0.101677
v 0.026572 0.081783 0.100266
v 0.047481 0.029946 0.101631
v 0.043251 0.048914 0.098403
v 0.048588 0.084291 0.088994
v 0.068519 0.030339 0.087295
v 0.064442 0.074571 0.080344
v 0.028148 0.109885 0.088284
v 0.023289 0.134669 0.083992
v 0.080252 0.014145 0.071107
v 0.084924 0.006843 0.058675
v 0.080213 0.000343 0.044185
v 0.051399 0.163827 0.059870
v 0.077742 0.159535 0.029081
v 0.017286 0.207748 0.058119
v 0.035217 0.206005 0.055556
v 0.044605 0.190287 0.052410
v 0.058634 0.188159 0.041700
v 0.059447 0.206090 0.044913
v 0.075626 0.185988 0.017545
v 0.070990 0.203574 0.031758
v 0.030634 0.231236 0.057088
v 0.049687 0.232940 0.049332
v 0.066739 0.227790 0.035691
v 0.078854 0.173178 0.011262
v 0.080443 0.214558 0.009078
v 0.021372 0.180931 0.067182
v 0.044839 0.305874 0.027895
v 0.044209 0.318446 0.027765
v 0.049794 0.315803 0.008500
v 0.052129 0.313246 -0.000929
v 0.028109 0.279056 0.043090
v 0.024273 0.317280 0.043646
v 0.057501 0.279181 0.027451
v 0.062896 0.286106 0.011303
v 0.037307 0.297541 0.037113
v 0.014233 0.351036 0.061883
v 0.038261 0.366927 0.061513
v 0.037620 0.377221 0.062168
v 0.042825 0.395552 0.038603
v 0.039046 0.385634 0.055175
v 0.028731 0.387601 0.061207
v 0.039955 0.338886 0.042943
v 0.051087 0.365219 0.050621
v 0.050857 0.378227 0.049639
v 0.059343 0.371555 0.032830
v 0.052823 0.386642 0.036462
v 0.009947 0.369567 0.069978
v 0.013089 0.405514 0.041061
v 0.026439 0.336401 0.048414
v 0.051736 0.347868 0.032163
v 0.054004 0.332560 -0.010638
v 0.066119 0.391933 0.004728
v 0.004705 0.473089 0.027548
v 0.020371 0.472438 0.020180
v 0.027120 0.475058 0.004207
v 0.060854 0.399849 0.019108
v 0.062717 0.413561 0.010038
v 0.071566 0.410358 -0.000000
v 0.008783 0.438668 0.025202
v 0.019444 0.441770 0.019119
v 0.031322 0.429727 0.016855
v 0.026005 0.448043 0.007753
v 0.062908 0.422729 -0.000563
v 0.007317 0.491307 0.021168
v 0.009291 0.510951 0.020318
v 0.009095 0.522657 0.013043
v 0.020332 0.490282 0.010324
v 0.020094 0.510680 0.011927
v 0.021342 0.520261 -0.001764
v 0.099594 0.008823 0.045441
v 0.099718 0.000241 0.030059
v 0.111891 0.023942 0.034124
v 0.112208 0.035919 0.034780
v 0.109159 0.007694 0.017375
v 0.103521 0.001203 0.006482
v 0.111275 0.007089 0.006058
v 0.102224 0.029362 0.054324
v 0.103338 0.090284 0.022889
v 0.118183 0.030536 0.000458
v 0.111301 0.053889 0.007176
v 0.092514 0.057995 0.055003
v 0.086955 0.102725 0.046094
v 0.097232 0.112362 0.002580
v 0.090205 0.147482 -0.000098
v 0.082866 0.000316 -0.063173
v 0.014931 0.000052 -0.101636
v 0.072488 0.139777 -0.069887
v 0.077882 0.161597 -0.048570
v 0.080839 0.140470 -0.057699
v 0.053159 0.168853 -0.078187
v 0.056202 0.226625 -0.061156
v 0.065218 0.187260 -0.052722
v 0.028941 0.201060 -0.076559
v 0.031779 0.240381 -0.071240
v 0.048116 0.193931 -0.068069
v 0.079879 0.180101 -0.007686
v 0.081303 0.220098 -0.011327
v 0.077568 0.181741 -0.028368
v 0.072597 0.217282 -0.042134
v 0.070330 0.247909 -0.026110
v 0.007488 0.261612 -0.069441
v 0.033046 0.263707 -0.060416
v 0.038729 0.317728 -0.038226
v 0.030395 0.302705 -0.051578
v 0.046827 0.288767 -0.040710
v 0.057043 0.260400 -0.042494
v 0.050238 0.311421 -0.019439
v 0.058991 0.291143 -0.024393
v 0.006700 0.318598 -0.059740
v 0.061425 0.292967 -0.010297
v 0.071882 0.256740 -0.010671
v 0.053484 0.363197 -0.026760
v 0.041707 0.368082 -0.037516
v 0.070173 0.388372 -0.025217
v 0.064307 0.385800 -0.032201
v 0.022141 0.345550 -0.048538
v 0.018430 0.371108 -0.049235
v 0.007930 0.404704 -0.063843
v 0.031181 0.403169 -0.056957
v 0.059153 0.366227 -0.019026
v 0.046991 0.332413 -0.026956
v 0.052734 0.405706 -0.050837
v 0.012218 0.462180 -0.033565
v 0.006422 0.440718 -0.040002
v 0.014905 0.421762 -0.061072
v 0.020613 0.446127 -0.028183
v 0.015628 0.430099 -0.050784
v 0.030400 0.442208 -0.010240
v 0.028438 0.455478 -0.011652
v 0.025092 0.439761 -0.028083
v 0.021669 0.414490 -0.060969
v 0.037349 0.433445 -0.007070
v 0.039740 0.430358 -0.019899
v 0.036032 0.430671 -0.040711
v 0.046680 0.421897 -0.050249
v 0.052913 0.428520 -0.005788
v 0.053304 0.415342 -0.050725
v 0.072053 0.403238 -0.033774
v 0.072430 0.420640 -0.029819
v 0.076991 0.405053 -0.021296
v 0.075401 0.415384 -0.022040
v 0.030827 0.480368 -0.010773
v 0.027892 0.480486 -0.021423
v 0.046976 0.428521 -0.030163
v 0.006127 0.525416 -0.010163
v 0.010717 0.482798 -0.031408
v 0.022568 0.521656 -0.011232
v 0.014823 0.520660 -0.018951
v 0.026024 0.502396 -0.013712
v 0.029810 0.509837 -0.010329
v 0.022363 0.514536 -0.017149
v 0.029629 0.029451 -0.132660
v 0.044592 0.001441 -0.104617
v 0.046777 0.007113 -0.113102
v 0.040744 0.029946 -0.130746
v 0.045952 0.056240 -0.120335
v 0.065410 0.008110 -0.098835
v 0.066745 0.052837 -0.107675
v 0.061223 0.027784 -0.120209
v 0.060696 0.035282 -0.120429
v 0.055532 0.000536 -0.088351
v 0.070357 0.027782 -0.112769
v 0.081626 0.005905 -0.081064
v 0.079186 0.024227 -0.098748
v 0.008760 0.051349 -0.129994
v 0.065692 0.071293 -0.104520
v 0.014661 0.113129 -0.111354
v 0.026346 0.089422 -0.120505
v 0.035341 0.136596 -0.101455
v 0.044644 0.109315 -0.103349
v 0.055898 0.142599 -0.086421
v 0.061182 0.112898 -0.089681
v 0.069466 0.087872 -0.099506
v 0.080349 0.088647 -0.087424
v 0.009036 0.158384 -0.101303
v 0.041909 0.082638 -0.118602
v 0.031838 0.171894 -0.090393
v 0.013106 0.207375 -0.078749
v 0.085642 0.059590 -0.086585
v 0.103421 0.002055 -0.031143
v 0.098054 0.006099 -0.055817
v 0.091968 0.007255 -0.071853
v 0.099281 0.050370 -0.070652
v 0.110970 0.007567 -0.032455
v 0.108577 0.055437 -0.044549
v 0.110484 0.033525 -0.062544
v 0.109919 0.025876 -0.062590
v 0.101067 0.032068 -0.076536
v 0.117725 0.045900 -0.019391
v 0.113365 0.055005 -0.020613
v 0.117405 0.031071 -0.044998
v 0.108280 0.085962 -0.021261
v 0.101150 0.083372 -0.057777
v 0.086049 0.108035 -0.063401
v 0.092733 0.086837 -0.071564
v 0.097007 0.108798 -0.034017
v 0.090601 0.032466 -0.090494
vt 0.315838 0.847675
vt 0.324623 0.817222
vt 0.334076 0.850155
vt 0.320905 0.791877
vt 0.337867 0.789455
vt 0.364260 0.820096
vt 0.324074 0.541319
vt 0.325803 0.542744
vt 0.315431 0.554118
vt 0.304776 0.753609
vt 0.293562 0.789500
vt 0.294904 0.710729
vt 0.362367 0.859875
vt 0.414877 0.816752
vt 0.425678 0.844473
vt 0.455091 0.796321
vt 0.470736 0.842877
vt 0.524988 0.810118
vt 0.536790 0.844353
vt 0.426814 0.748516
vt 0.582448 0.827817
vt 0.608487 0.803860
vt 0.610315 0.856674
vt 0.302776 0.690013
vt 0.316131 0.714191
vt 0.274432 0.820368
vt 0.272199 0.798611
vt 0.291767 0.791920
vt 0.342511 0.721241
vt 0.328576 0.692483
vt 0.367666 0.690013
vt 0.253832 0.762154
vt 0.275180 0.755196
vt 0.323162 0.510343
vt 0.326619 0.515418
vt 0.325088 0.520267
vt 0.247300 0.802315
vt 0.244487 0.785206
vt 0.225445 0.775145
vt 0.225140 0.749969
vt 0.314552 0.506361
vt 0.246855 0.826742
vt 0.198248 0.824909
vt 0.263650 0.662302
vt 0.227099 0.663553
vt 0.225008 0.606489
vt 0.327197 0.519993
vt 0.327197 0.536549
vt 0.312875 0.552245
vt 0.322271 0.524482
vt 0.371448 0.742293
vt 0.424194 0.712960
vt 0.460227 0.742349
vt 0.536102 0.746499
vt 0.460964 0.707087
vt 0.270547 0.583764
vt 0.640457 0.763952
vt 0.647799 0.802163
vt 0.581110 0.782654
vt 0.596290 0.781909
vt 0.589140 0.746786
vt 0.230899 0.509983
vt 0.199408 0.463563
vt 0.227057 0.469309
vt 0.000493 0.120336
vt 0.002469 0.105099
vt 0.002469 0.132292
vt 0.192158 0.582913
vt 0.220043 0.547204
vt 0.685176 0.797673
vt 0.680016 0.834755
vt 0.744802 0.814103
vt 0.699966 0.771028
vt 0.771944 0.767663
vt 0.769508 0.781370
vt 0.212109 0.465958
vt 0.220097 0.411386
vt 0.215685 0.355795
vt 0.130878 0.391756
vt 0.875693 0.773284
vt 0.891299 0.812789
vt 0.863339 0.804225
vt 0.824572 0.817822
vt 0.921327 0.823439
vt 0.905996 0.850702
vt 0.861288 0.751962
vt 0.840826 0.774674
vt 0.886492 0.747236
vt 0.913550 0.789029
vt 0.795073 0.789317
vt 0.782211 0.814127
vt 0.843831 0.740626
vt 0.835681 0.759338
vt 0.874953 0.708663
vt 0.802315 0.763208
vt 0.862303 0.706085
vt 0.226847 0.252275
vt 0.217791 0.266379
vt 0.194727 0.235504
vt 0.029773 0.457466
vt 0.000492 0.441110
vt 0.029773 0.412612
vt 0.211570 0.300034
vt 0.193890 0.293551
vt 0.231491 0.281024
vt 0.013285 0.291507
vt 0.003432 0.245812
vt 0.034679 0.254389
vt 0.205983 0.327327
vt 0.173288 0.310501
vt 0.958762 0.822627
vt 0.955541 0.800473
vt 0.913730 0.756592
vt 0.239301 0.208934
vt 0.194865 0.192825
vt 0.236070 0.164986
vt 0.180355 0.150801
vt 0.000596 0.962802
vt 0.026823 0.951849
vt 0.034138 0.971511
vt 0.019431 0.919320
vt 0.040224 0.911212
vt 0.065592 0.888515
vt 0.039402 0.871582
vt 0.301073 0.872062
vt 0.338232 0.946070
vt 0.294497 0.900307
vt 0.314647 0.936755
vt 0.306644 0.559890
vt 0.311767 0.560159
vt 0.303164 0.564892
vt 0.337943 0.968884
vt 0.378493 0.929137
vt 0.328798 0.978679
vt 0.511072 0.025340
vt 0.526957 0.037167
vt 0.511906 0.041053
vt 0.299335 0.561884
vt 0.304548 0.553471
vt 0.301450 0.559259
vt 0.422519 0.890208
vt 0.430191 0.932456
vt 0.474723 0.879288
vt 0.512327 0.907692
vt 0.467743 0.923559
vt 0.511873 0.885039
vt 0.438107 0.975174
vt 0.375758 0.972462
vt 0.582808 0.872528
vt 0.629617 0.906681
vt 0.667011 0.894147
vt 0.690467 0.866867
vt 0.346525 0.999512
vt 0.288482 0.558415
vt 0.540794 0.939354
vt 0.588280 0.901754
vt 0.594655 0.922576
vt 0.478395 0.331828
vt 0.500611 0.292864
vt 0.505490 0.332534
vt 0.674581 0.921879
vt 0.474767 0.166523
vt 0.493283 0.238733
vt 0.458300 0.264996
vt 0.484149 0.293987
vt 0.459237 0.299186
vt 0.455448 0.366063
vt 0.481017 0.371903
vt 0.754676 0.864330
vt 0.786149 0.849310
vt 0.746242 0.890011
vt 0.788894 0.878029
vt 0.483601 0.448202
vt 0.458407 0.470953
vt 0.465464 0.419323
vt 0.414568 0.514536
vt 0.431054 0.425596
vt 0.395467 0.424913
vt 0.884611 0.872449
vt 0.828756 0.849920
vt 0.878609 0.851741
vt 0.491545 0.588941
vt 0.502743 0.587822
vt 0.487854 0.605017
vt 0.467533 0.588168
vt 0.420281 0.579321
vt 0.459102 0.539137
vt 0.932674 0.866181
vt 0.948523 0.838367
vt 0.962038 0.852398
vt 0.939197 0.875246
vt 0.962546 0.891783
vt 0.935623 0.900155
vt 0.953240 0.899868
vt 0.000501 0.346344
vt 0.013703 0.364515
vt 0.003935 0.390738
vt 0.063702 0.406015
vt 0.504939 0.640600
vt 0.522179 0.633390
vt 0.040861 0.320984
vt 0.053189 0.347595
vt 0.018850 0.341342
vt 0.457262 0.645326
vt 0.485062 0.657881
vt 0.465683 0.682775
vt 0.072697 0.954870
vt 0.102732 0.950603
vt 0.101758 0.966500
vt 0.099489 0.981664
vt 0.117651 0.996041
vt 0.072714 0.026683
vt 0.048380 0.034873
vt 0.049843 0.017518
vt 0.423069 0.627986
vt 0.395789 0.645265
vt 0.100596 0.888641
vt 0.088494 0.874586
vt 0.114894 0.862656
vt 0.082142 0.856947
vt 0.100107 0.848051
vt 0.073046 0.828405
vt 0.079344 0.102600
vt 0.065739 0.103054
vt 0.075578 0.080528
vt 0.117651 0.842016
vt 0.285365 0.561554
vt 0.433334 0.034983
vt 0.453673 0.013334
vt 0.480485 0.034211
vt 0.493022 0.037436
vt 0.430317 0.017496
vt 0.425812 0.001938
vt 0.411746 0.037192
vt 0.369803 0.006958
vt 0.357991 0.030868
vt 0.312431 0.011694
vt 0.407921 0.126191
vt 0.382145 0.176876
vt 0.378145 0.130183
vt 0.374585 0.247841
vt 0.403742 0.240642
vt 0.417760 0.326528
vt 0.173200 0.792903
vt 0.224678 0.789557
vt 0.187729 0.701326
vt 0.171345 0.759354
vt 0.165617 0.709935
vt 0.148496 0.818396
vt 0.135303 0.792846
vt 0.305300 0.496044
vt 0.310499 0.500669
vt 0.300340 0.495509
vt 0.130382 0.827358
vt 0.103736 0.812954
vt 0.105423 0.828214
vt 0.095868 0.791445
vt 0.237364 0.702124
vt 0.297816 0.499389
vt 0.068928 0.815756
vt 0.290030 0.494897
vt 0.054658 0.826146
vt 0.156404 0.664248
vt 0.126567 0.705552
vt 0.098054 0.720572
vt 0.161185 0.624403
vt 0.154381 0.549341
vt 0.188923 0.490082
vt 0.155218 0.505797
vt 0.135114 0.469003
vt 0.105747 0.576698
vt 0.085343 0.508520
vt 0.069304 0.473461
vt 0.102497 0.466161
vt 0.084525 0.536516
vt 0.060564 0.511507
vt 0.045228 0.537976
vt 0.609039 0.446771
vt 0.576580 0.436019
vt 0.591352 0.404917
vt 0.137103 0.331201
vt 0.078373 0.390940
vt 0.631186 0.558478
vt 0.578612 0.474638
vt 0.189406 0.269895
vt 0.174090 0.250779
vt 0.141377 0.221982
vt 0.136857 0.301537
vt 0.162878 0.279385
vt 0.127392 0.255065
vt 0.000493 0.177435
vt 0.009754 0.158624
vt 0.036649 0.153617
vt 0.128791 0.238826
vt 0.102066 0.257063
vt 0.090094 0.282563
vt 0.113746 0.297505
vt 0.098383 0.328372
vt 0.622037 0.696533
vt 0.597508 0.691645
vt 0.620378 0.659862
vt 0.602324 0.711520
vt 0.623210 0.720991
vt 0.091289 0.221715
vt 0.079445 0.245430
vt 0.069302 0.199251
vt 0.648905 0.736633
vt 0.666076 0.720437
vt 0.130007 0.083067
vt 0.149809 0.136618
vt 0.130542 0.131441
vt 0.149930 0.052850
vt 0.124359 0.053779
vt 0.191739 0.011408
vt 0.206413 0.000488
vt 0.223449 0.024714
vt 0.125790 0.021669
vt 0.146651 0.021750
vt 0.026770 0.790673
vt 0.025260 0.822124
vt 0.287900 0.498924
vt 0.284076 0.494490
vt 0.280749 0.497644
vt 0.274829 0.501756
vt 0.275984 0.498281
vt 0.510488 0.157754
vt 0.532545 0.128206
vt 0.559573 0.158854
vt 0.558376 0.196935
vt 0.512371 0.176458
vt 0.044868 0.673173
vt 0.523113 0.283412
vt 0.585912 0.286514
vt 0.601716 0.340306
vt 0.566638 0.367003
vt 0.596114 0.383347
vt 0.700812 0.388397
vt 0.739328 0.353391
vt 0.732705 0.395007
vt 0.682753 0.349509
vt 0.689789 0.314317
vt 0.360998 0.395931
vt 0.383277 0.392669
vt 0.368625 0.421199
vt 0.330444 0.431564
vt 0.326332 0.392817
vt 0.723279 0.594752
vt 0.688762 0.589744
vt 0.687297 0.556852
vt 0.716244 0.549093
vt 0.652697 0.506981
vt 0.665709 0.563375
vt 0.343328 0.493512
vt 0.382122 0.511720
vt 0.364799 0.559133
vt 0.375314 0.598029
vt 0.360197 0.649073
vt 0.340159 0.600482
vt 0.706609 0.620301
vt 0.733540 0.672806
vt 0.327910 0.658717
vt 0.648435 0.603977
vt 0.660834 0.597457
vt 0.679321 0.624722
vt 0.698023 0.674480
vt 0.723696 0.727549
vt 0.708041 0.706863
vt 0.720325 0.701149
vt 0.023614 0.023392
vt 0.446668 0.666299
vt 0.388524 0.673832
vt 0.192107 0.862205
vt 0.216426 0.854402
vt 0.204194 0.888464
vt 0.261069 0.879075
vt 0.236771 0.874812
vt 0.225716 0.861856
vt 0.178862 0.916789
vt 0.376586 0.663930
vt 0.160135 0.855683
vt 0.152159 0.841145
vt 0.170915 0.835539
vt 0.340528 0.682793
vt 0.758049 0.727246
vt 0.721999 0.755527
vt 0.760048 0.742176
vt 0.183885 0.954020
vt 0.186452 0.910624
vt 0.196939 0.904667
vt 0.675384 0.747574
vt 0.703440 0.733574
vt 0.707818 0.749398
vt 0.198078 0.035047
vt 0.174833 0.051807
vt 0.211224 0.050070
vt 0.131005 0.966987
vt 0.161184 0.963988
vt 0.151706 0.981733
vt 0.011646 0.307421
vt 0.008743 0.321539
vt 0.000651 0.297270
vt 0.174974 0.971938
vt 0.167969 0.952297
vt 0.317504 0.081930
vt 0.328442 0.042322
vt 0.365696 0.077177
vt 0.261744 0.099193
vt 0.263304 0.055087
vt 0.280303 0.051626
vt 0.232505 0.058068
vt 0.234709 0.069592
vt 0.236174 0.129883
vt 0.230552 0.100730
vt 0.753605 0.093917
vt 0.763143 0.123700
vt 0.748127 0.125480
vt 0.260378 0.524856
vt 0.264283 0.532025
vt 0.259904 0.532108
vt 0.346766 0.162994
vt 0.322838 0.183086
vt 0.298652 0.146767
vt 0.296456 0.225900
vt 0.341748 0.254403
vt 0.276459 0.184964
vt 0.234179 0.157486
vt 0.273320 0.139811
vt 0.253399 0.196700
vt 0.264030 0.520817
vt 0.266675 0.509657
vt 0.262421 0.516005
vt 0.260207 0.520688
vt 0.636978 0.185615
vt 0.627747 0.147592
vt 0.657475 0.146869
vt 0.666870 0.225487
vt 0.678592 0.171024
vt 0.710505 0.181346
vt 0.655873 0.135030
vt 0.672741 0.104137
vt 0.682007 0.141092
vt 0.273086 0.500187
vt 0.264784 0.508316
vt 0.605954 0.114698
vt 0.599156 0.191217
vt 0.593180 0.177356
vt 0.687921 0.262488
vt 0.711366 0.310180
vt 0.639627 0.271255
vt 0.547508 0.257620
vt 0.610058 0.239066
vt 0.625628 0.388993
vt 0.640448 0.449893
vt 0.657838 0.386073
vt 0.689378 0.437520
vt 0.707403 0.138219
vt 0.366158 0.780245
vt 0.327829 0.753333
vt 0.316402 0.502814
vt 0.266024 0.502775
vt 0.229533 0.321652
vt 0.896456 0.733531
vt 0.036649 0.301212
vt 0.047072 0.985526
vt 0.027367 0.997764
vt 0.051231 0.953232
vt 0.052193 0.838428
vt 0.277166 0.554272
vt 0.346247 0.985648
vt 0.474577 0.972379
vt 0.635414 0.930581
vt 0.476109 0.491686
vt 0.419390 0.384321
vt 0.481722 0.544803
vt 0.015651 0.319601
vt 0.070539 0.979164
vt 0.083384 0.923169
vt 0.063832 0.076874
vt 0.267219 0.549389
vt 0.274932 0.557209
vt 0.450653 0.132944
vt 0.435803 0.167145
vt 0.309042 0.496065
vt 0.127297 0.508923
vt 0.111516 0.533792
vt 0.048753 0.581139
vt 0.113928 0.362201
vt 0.097451 0.348300
vt 0.200074 0.214418
vt 0.035177 0.207617
vt 0.157425 0.082262
vt 0.139555 0.909067
vt 0.117768 0.906037
vt 0.134296 0.866047
vt 0.107329 0.207488
vt 0.133180 0.934259
vt 0.006962 0.690962
vt 0.041652 0.745094
vt 0.000571 0.778565
vt 0.485919 0.171732
vt 0.548339 0.124209
vt 0.742995 0.568128
vt 0.295080 0.434964
vt 0.287103 0.378472
vt 0.674152 0.489235
vt 0.707402 0.504493
vt 0.752744 0.635426
vt 0.711225 0.667854
vt 0.019598 0.059025
vt 0.049403 0.074932
vt 0.279483 0.860088
vt 0.163291 0.877050
vt 0.251343 0.949229
vt 0.222919 0.981649
vt 0.232061 0.965513
vt 0.221298 0.906172
vt 0.235747 0.935612
vt 0.216972 0.929586
vt 0.683047 0.766760
vt 0.028683 0.152837
vt 0.049844 0.109638
vt 0.065303 0.149324
vt 0.223638 0.039046
vt 0.161145 0.916709
vt 0.000543 0.092928
vt 0.026094 0.091012
vt 0.269900 0.543623
vt 0.263037 0.537810
vt 0.252325 0.024290
vt 0.748365 0.165691
vt 0.765573 0.135257
vt 0.743843 0.310506
vt 0.738991 0.263557
vt 0.765573 0.254732
vt 0.721305 0.226208
vt 0.743794 0.222027
vt 0.278304 0.284470
vt 0.310327 0.282351
vt 0.322525 0.329927
vt 0.267778 0.242510
vt 0.645946 0.106486
vt 0.691897 0.227360
vt 0.748738 0.195117
vt 0.722551 0.123519
vt 0.290401 0.822313
vt 0.320842 0.550872
vt 0.288440 0.695353
vt 0.616590 0.762744
vt 0.249876 0.533473
vt 0.268841 0.478380
vt 0.253366 0.420485
vt 0.230103 0.351774
vt 0.001145 0.474791
vt 0.036326 0.303313
vt 0.482315 0.000585
vt 0.510201 0.072313
vt 0.393167 0.335717
vt 0.000488 0.023104
vt 0.003016 0.000498
vt 0.003016 0.060074
vt 0.842501 0.875636
vt 0.526957 0.661591
vt 0.524790 0.650797
vt 0.043539 0.421250
vt 0.063702 0.311533
vt 0.070790 0.042140
vt 0.080205 0.000606
vt 0.028495 0.666870
vt 0.001087 0.649198
vt 0.028495 0.630934
vt 0.080205 0.129840
vt 0.112477 0.912767
vt 0.174833 0.002772
vt 0.290182 0.563649
vt 0.496940 0.131783
vt 0.165179 0.835718
vt 0.139748 0.762338
vt 0.060939 0.378449
vt 0.622807 0.613321
vt 0.619196 0.593885
vt 0.607725 0.552178
vt 0.015954 0.500423
vt 0.122616 0.224817
vt 0.101910 0.236369
vt 0.017851 0.565112
vt 0.017851 0.636094
vt 0.000568 0.603746
vt 0.152620 0.190924
vt 0.111640 0.150680
vt 0.178444 0.103790
vt 0.061292 0.176654
vt 0.114212 0.120536
vt 0.171107 0.053184
vt 0.042316 0.180964
vt 0.142718 0.002445
vt 0.173370 0.017415
vt 0.115928 0.005090
vt 0.000571 0.797433
vt 0.495144 0.137637
vt 0.515854 0.120255
vt 0.348150 0.336040
vt 0.292508 0.324496
vt 0.727109 0.447271
vt 0.745259 0.505362
vt 0.756087 0.466407
vt 0.335213 0.521298
vt 0.435101 0.699845
vt 0.189960 0.851616
vt 0.248940 0.911246
vt 0.000692 0.817514
vt 0.011525 0.810583
vt 0.011525 0.840162
vt 0.117768 0.836571
vt 0.259550 0.938268
vt 0.328852 0.673865
vt 0.279483 0.973813
vt 0.054810 0.161020
vt 0.185804 0.966834
vt 0.016117 0.145271
vt 0.011646 0.291922
vt 0.260710 0.539137
vt 0.015284 0.839761
vt 0.015284 0.865381
vt 0.000868 0.848503
vt 0.724580 0.098854
vt 0.690576 0.099820
vt 0.240712 0.227359
vt 0.022446 0.487236
vt 0.022446 0.567288
vt 0.000605 0.545878
vt 0.078765 0.330694
vt 0.171309 0.000506
vn -0.9466 -0.2851 0.1508
vn -0.8946 -0.0438 0.4447
vn -0.9704 0.1995 0.1357
vn -0.7691 -0.2352 0.5943
vn -0.7888 0.1972 0.5822
vn -0.8958 0.2542 0.3646
vn -0.3027 -0.9405 0.1541
vn -0.6726 -0.6804 0.2909
vn -0.6628 -0.7471 -0.0502
vn -0.6423 -0.4538 0.6176
vn -0.5514 -0.6908 0.4677
vn -0.3774 -0.7038 0.6018
vn -0.9612 0.2583 0.0972
vn -0.8834 0.2521 0.3949
vn -0.9305 0.2989 0.2118
vn -0.8105 0.3287 0.4848
vn -0.9290 0.2946 0.2238
vn -0.8569 0.2509 0.4503
vn -0.9492 0.2437 0.1990
vn -0.6901 0.2932 0.6616
vn -0.9020 0.2901 0.3196
vn -0.9239 -0.1941 0.3298
vn -0.8584 -0.0629 0.5091
vn -0.9984 -0.0008 0.0559
vn -0.3377 -0.3641 0.8680
vn -0.5983 -0.2541 0.7599
vn -0.2638 -0.0690 0.9621
vn -0.4302 -0.0117 0.9027
vn -0.6055 0.1248 0.7860
vn -0.2981 0.1649 0.9402
vn -0.2021 0.1827 0.9622
vn -0.0729 -0.9127 0.4020
vn -0.2061 -0.8101 0.5489
vn -0.1764 -0.9364 0.3033
vn -0.1059 -0.1847 0.9771
vn -0.1884 0.1944 0.9627
vn -0.0705 0.1922 0.9788
vn -0.0967 0.1631 0.9819
vn -0.0060 -0.9613 0.2754
vn -0.1216 -0.3955 0.9104
vn 0.0323 -0.5939 0.8039
vn -0.3630 0.3305 0.8712
vn -0.0906 0.3340 0.9382
vn -0.1798 0.2766 0.9440
vn -0.2631 -0.9642 -0.0316
vn -0.1074 -0.9899 0.0923
vn -0.6971 0.1731 0.6958
vn -0.4742 0.2708 0.8377
vn -0.6117 0.3409 0.7139
vn -0.5657 0.2920 0.7712
vn -0.5484 0.1108 0.8288
vn -0.8604 0.1698 0.4805
vn -0.7323 0.0977 0.6740
vn -0.6702 -0.1055 0.7347
vn -0.4268 0.1983 0.8824
vn -0.1765 0.1447 0.9736
vn 0.0884 0.1279 0.9878
vn -0.1168 0.1047 0.9876
vn 0.2223 -0.9695 0.1030
vn 0.0439 0.3406 0.9392
vn -0.1740 0.3496 0.9206
vn -0.7808 0.2894 0.5537
vn -0.9479 0.2647 0.1775
vn -0.8722 0.3593 0.3319
vn -0.5235 0.2816 0.8041
vn -0.5001 0.1130 0.8585
vn -0.7307 0.2555 0.6331
vn 0.0567 0.3350 0.9405
vn -0.1284 0.2428 0.9615
vn -0.1709 0.0334 0.9847
vn 0.2551 0.1683 0.9522
vn -0.9309 -0.0626 0.3598
vn -0.9675 -0.1541 0.2004
vn -0.9675 -0.2135 0.1356
vn -0.9796 -0.1260 0.1564
vn -0.9014 -0.0190 0.4325
vn -0.9223 -0.3783 0.0785
vn -0.6969 -0.2991 0.6518
vn -0.8565 -0.3248 0.4013
vn -0.6742 0.2313 0.7013
vn -0.8079 0.2803 0.5184
vn -0.8771 -0.0524 0.4774
vn -0.9444 0.2072 0.2554
vn -0.3810 -0.4807 0.7898
vn -0.6527 -0.3642 0.6643
vn -0.4393 0.0292 0.8979
vn -0.7463 -0.1832 0.6399
vn -0.3072 -0.5966 0.7414
vn 0.0301 -0.0166 0.9994
vn 0.0248 -0.0124 0.9996
vn 0.0079 0.3158 0.9488
vn -0.0408 -0.6284 0.7768
vn -0.0962 -0.3825 0.9189
vn -0.4019 0.5042 0.7644
vn -0.1135 0.6796 0.7248
vn -0.1396 0.6940 0.7063
vn -0.1079 -0.1583 0.9815
vn 0.0369 -0.3327 0.9423
vn -0.5543 0.6181 0.5574
vn -0.3973 0.6293 0.6680
vn -0.4087 0.6359 0.6546
vn -0.1164 0.4460 0.8874
vn -0.5783 0.1145 0.8077
vn -0.5682 0.1071 0.8159
vn -0.5448 0.1573 0.8237
vn -0.3393 0.0538 0.9391
vn -0.7608 0.1709 0.6261
vn -0.8802 0.2238 0.4186
vn -0.4267 0.1733 0.8877
vn -0.8383 -0.5452 0.0102
vn -0.9911 0.0148 -0.1327
vn -0.8792 -0.4550 -0.1417
vn -0.6422 -0.7321 -0.2271
vn -0.7605 -0.4346 -0.4825
vn -0.8757 0.3447 -0.3381
vn -0.9693 0.1954 -0.1493
vn -0.8511 -0.4000 -0.3401
vn -0.7894 -0.2428 -0.5639
vn -0.5420 -0.7227 -0.4288
vn -0.0422 -0.9989 -0.0200
vn -0.3146 -0.9340 -0.1692
vn -0.9669 0.2550 0.0006
vn -0.9181 0.2979 -0.2614
vn -0.9657 0.2592 0.0134
vn -0.9475 0.2220 -0.2300
vn -0.9060 0.3153 -0.2823
vn -0.9796 0.2007 -0.0075
vn -0.7805 0.3280 -0.5322
vn -0.8637 0.2629 -0.4300
vn -0.9922 0.1030 -0.0708
vn -0.9133 0.0746 -0.4005
vn -0.9132 0.2420 -0.3279
vn -0.9520 0.2786 -0.1271
vn -0.7050 0.2550 -0.6618
vn -0.1578 -0.9671 -0.1997
vn -0.8264 0.2743 -0.4917
vn -0.9280 0.1505 -0.3408
vn -0.8333 0.1970 -0.5165
vn -0.7269 0.0901 -0.6808
vn -0.7249 0.2673 -0.6349
vn -0.7132 0.3348 -0.6158
vn -0.6071 0.3296 -0.7230
vn -0.6025 0.2317 -0.7638
vn -0.4598 0.2258 -0.8588
vn -0.9123 0.3694 -0.1766
vn -0.9738 0.2104 -0.0858
vn -0.7919 0.3144 -0.5235
vn -0.8712 0.1992 -0.4487
vn -0.6381 0.2261 -0.7360
vn -0.5638 0.3132 -0.7642
vn -0.1734 0.2109 -0.9620
vn -0.3863 0.2418 -0.8901
vn -0.0876 0.2480 -0.9648
vn -0.8405 -0.3095 -0.4448
vn -0.9836 -0.1007 -0.1498
vn -0.9585 -0.2681 -0.0973
vn -0.6594 -0.2492 -0.7093
vn -0.4428 -0.4066 -0.7992
vn -0.4135 -0.1783 -0.8929
vn -0.1110 -0.0255 -0.9935
vn -0.3609 0.1588 -0.9190
vn -0.9643 -0.1960 0.1783
vn -0.8305 0.2866 0.4775
vn -0.7115 0.6815 0.1712
vn -0.9921 0.0546 -0.1126
vn -0.6217 0.6638 -0.4158
vn -0.7381 -0.2660 -0.6200
vn -0.8303 0.0938 -0.5494
vn -0.3801 0.9194 -0.1010
vn -0.1930 0.8263 -0.5292
vn -0.4747 -0.0329 -0.8795
vn -0.3157 0.8726 0.3726
vn -0.2242 0.9730 0.0553
vn -0.3330 0.9195 0.2089
vn -0.2263 -0.2355 -0.9452
vn 0.0273 0.5224 -0.8523
vn -0.2796 0.4442 -0.8512
vn -0.9566 0.2842 -0.0639
vn -0.7490 0.1413 -0.6474
vn -0.8071 0.5149 -0.2890
vn -0.7805 0.5782 -0.2377
vn -0.7651 0.5996 -0.2346
vn -0.3313 0.5021 -0.7988
vn -0.4497 0.2308 -0.8628
vn -0.1105 0.6270 -0.7711
vn -0.1380 -0.2950 -0.9455
vn 0.0620 -0.1369 -0.9886
vn -0.9274 0.2746 -0.2541
vn -0.9864 0.1637 -0.0172
vn -0.9153 0.4023 -0.0222
vn -0.9502 0.3034 -0.0707
vn -0.8253 0.5624 -0.0511
vn -0.5811 0.8127 -0.0414
vn -0.5025 0.3484 -0.7913
vn -0.7805 0.2553 -0.5707
vn -0.4169 0.8908 -0.1809
vn -0.3589 -0.7456 -0.5615
vn -0.5321 -0.3954 -0.7487
vn -0.5838 -0.5092 -0.6324
vn -0.6396 -0.4710 -0.6076
vn -0.5701 0.2009 -0.7966
vn -0.5319 0.5185 -0.6695
vn -0.4777 -0.4765 -0.7381
vn -0.3414 -0.4937 -0.7998
vn -0.1636 -0.7134 -0.6814
vn -0.0818 -0.2743 -0.9582
vn 0.0618 -0.7665 -0.6393
vn -0.3403 0.2913 -0.8941
vn -0.3730 0.1678 -0.9125
vn -0.1731 0.3135 -0.9337
vn -0.1188 0.2799 -0.9527
vn -0.0584 0.3180 -0.9463
vn -0.3185 0.3046 -0.8977
vn -0.2713 0.2399 -0.9321
vn 0.1730 -0.0472 0.9838
vn 0.0108 -0.0931 0.9956
vn 0.0853 0.2880 0.9538
vn 0.1939 0.1726 0.9657
vn 0.2898 0.2346 0.9279
vn 0.2953 -0.4509 0.8423
vn 0.4577 0.0054 0.8891
vn 0.3657 -0.7023 0.6108
vn 0.1000 -0.8841 0.4565
vn 0.4067 -0.7627 0.5029
vn 0.5644 -0.3734 0.7362
vn 0.6320 -0.0049 0.7750
vn -0.1434 0.2449 0.9589
vn 0.1436 -0.9750 0.1694
vn 0.6286 -0.4297 0.6483
vn 0.4603 -0.7707 0.4406
vn 0.2926 0.3112 0.9042
vn 0.5478 0.3486 0.7605
vn 0.6227 0.2194 0.7511
vn 0.2623 0.2479 0.9326
vn 0.2375 0.3422 0.9091
vn 0.0197 0.0861 0.9961
vn 0.0562 0.1997 0.9783
vn 0.1907 0.1351 0.9723
vn 0.5779 0.3014 0.7584
vn 0.6114 -0.0309 0.7907
vn 0.7974 0.1583 0.5823
vn 0.4926 0.1669 0.8541
vn 0.6847 -0.1906 0.7035
vn 0.8414 -0.0685 0.5361
vn 0.9391 0.0440 0.3408
vn 0.9720 0.0750 0.2228
vn 0.1654 -0.1248 0.9783
vn 0.7333 0.2747 0.6220
vn 0.9149 0.3238 0.2409
vn 0.1663 -0.1164 0.9792
vn 0.2149 -0.0263 0.9763
vn 0.2819 0.5860 0.7597
vn 0.2471 -0.4180 0.8742
vn 0.2015 -0.5338 0.8212
vn 0.4610 -0.2295 0.8572
vn 0.5387 0.5913 0.6001
vn 0.4791 0.6246 0.6167
vn 0.4722 0.2100 0.8561
vn 0.7786 -0.2086 0.5919
vn 0.8867 -0.3244 0.3295
vn 0.6104 -0.3567 0.7072
vn 0.9095 -0.1291 0.3951
vn 0.9568 -0.0648 0.2834
vn 0.7720 0.3075 0.5563
vn 0.7444 0.4183 0.5205
vn 0.8089 0.2197 0.5454
vn 0.9500 -0.2114 0.2299
vn 0.7063 0.1291 0.6960
vn 0.4719 0.2022 0.8581
vn 0.5187 0.2220 0.8256
vn 0.3022 0.1834 0.9354
vn 0.8346 0.1721 0.5233
vn 0.0189 0.9998 -0.0116
vn 0.3484 0.9271 0.1382
vn 0.2845 0.9518 0.1149
vn 0.6932 0.3099 0.6508
vn 0.6135 0.1737 0.7704
vn 0.7984 -0.0401 0.6008
vn 0.6599 -0.5935 0.4607
vn 0.1674 -0.9720 0.1652
vn 0.3302 -0.8232 0.4619
vn -0.0393 -0.9981 -0.0471
vn 0.3625 -0.9316 0.0283
vn 0.8357 -0.5218 0.1712
vn 0.7828 -0.5710 0.2472
vn 0.9233 -0.2261 0.3107
vn 0.9953 -0.0425 0.0868
vn 0.9711 0.2139 0.1061
vn 0.9355 0.1196 0.3326
vn 0.8071 0.2726 0.5236
vn 0.9474 0.2975 0.1180
vn 0.9610 0.2584 0.0982
vn 0.8572 0.2668 0.4404
vn 0.9544 0.2351 0.1838
vn 0.8046 0.1737 -0.5679
vn 0.6257 0.3450 -0.6996
vn 0.5804 0.2314 -0.7807
vn 0.8784 0.2913 -0.3788
vn 0.8569 0.2761 -0.4354
vn 0.1305 0.2620 -0.9562
vn -0.0461 0.3554 -0.9336
vn 0.1709 0.3017 -0.9380
vn 0.4830 0.2827 -0.8287
vn 0.3876 0.2475 -0.8880
vn 0.7591 0.1430 -0.6350
vn 0.8547 0.4497 -0.2592
vn 0.8620 0.3166 -0.3958
vn 0.7101 0.2475 -0.6592
vn 0.9643 0.2526 -0.0801
vn 0.9287 0.3608 -0.0860
vn 0.5734 0.2142 -0.7908
vn 0.2121 0.2190 -0.9524
vn 0.3592 0.0962 -0.9283
vn 0.2243 -0.2011 -0.9536
vn 0.2878 -0.2100 -0.9344
vn 0.5190 -0.2466 -0.8184
vn 0.8615 -0.0783 -0.5017
vn 0.4688 -0.1834 -0.8641
vn 0.9668 0.1028 0.2338
vn 0.9747 0.2147 0.0614
vn 0.9817 -0.1340 -0.1354
vn 0.9630 -0.2615 0.0649
vn 0.8122 -0.1329 -0.5680
vn 0.8845 -0.4272 -0.1875
vn 0.6582 -0.4290 -0.6186
vn 0.1302 0.2245 -0.9658
vn 0.1533 0.6340 -0.7580
vn -0.0959 0.0170 -0.9952
vn 0.1276 0.1758 -0.9761
vn 0.5742 0.1908 -0.7962
vn 0.5996 0.1463 -0.7868
vn 0.4256 0.0885 -0.9006
vn 0.2290 0.7784 -0.5845
vn 0.1303 0.7578 -0.6393
vn 0.4829 0.1808 -0.8568
vn 0.2621 0.0889 -0.9609
vn 0.8167 0.5394 -0.2050
vn 0.8194 0.5689 0.0705
vn 0.4261 0.8982 -0.1083
vn 0.3639 0.4194 -0.8317
vn 0.8297 0.1509 -0.5374
vn 0.5067 0.2462 -0.8262
vn 0.9008 0.2057 0.3825
vn 0.9938 -0.1012 -0.0466
vn 0.8392 0.5011 0.2114
vn 0.9346 0.0777 -0.3472
vn 0.1084 0.9795 -0.1698
vn 0.1568 0.9252 -0.3456
vn 0.8468 0.3964 0.3547
vn 0.7919 0.4640 0.3970
vn 0.9867 -0.1199 0.1101
vn 0.9293 0.1906 -0.3164
vn 0.9329 0.1877 -0.3074
vn 0.9571 0.0275 -0.2884
vn 0.6732 -0.0064 -0.7395
vn 0.0476 0.1692 -0.9844
vn 0.0242 -0.1678 -0.9855
vn -0.1003 0.1509 -0.9834
vn 0.4702 0.2035 -0.8588
vn 0.2559 0.2882 -0.9227
vn 0.1202 0.2159 -0.9690
vn 0.5546 0.0146 -0.8320
vn 0.5540 0.1861 -0.8114
vn 0.6250 0.1305 -0.7696
vn 0.6349 0.2315 -0.7371
vn 0.2884 -0.7168 -0.6349
vn 0.4501 -0.5550 -0.6995
vn 0.5829 -0.5510 -0.5972
vn 0.3037 -0.8989 -0.3158
vn 0.1660 -0.9701 -0.1770
vn 0.4743 -0.7213 -0.5048
vn 0.0113 0.3901 -0.9207
vn 0.1484 0.3292 -0.9325
vn 0.1779 0.3204 -0.9304
vn 0.3653 0.2503 -0.8966
vn 0.1335 0.3220 -0.9373
vn 0.4310 0.3372 -0.8370
vn 0.6335 0.2616 -0.7282
vn 0.3768 0.2682 -0.8866
vn 0.6384 0.3218 -0.6992
vn 0.2209 -0.9638 -0.1490
vn 0.3863 -0.9175 -0.0945
vn 0.6054 -0.7383 -0.2974
vn 0.6035 -0.6660 -0.4385
vn 0.9342 0.2395 -0.2645
vn 0.9757 -0.0273 -0.2174
vn 0.8831 0.1467 -0.4457
vn 0.9005 0.2492 -0.3564
vn 0.8341 0.2314 -0.5007
vn 0.7565 0.1718 -0.6310
vn 0.8391 -0.3047 -0.4506
vn 0.7962 -0.0490 -0.6031
vn 0.6056 -0.7932 0.0645
vn 0.7955 -0.5893 -0.1411
vn 0.9529 0.2982 -0.0552
vn 0.9663 0.2566 -0.0211
vn 0.8142 0.3400 -0.4706
vn 0.7502 0.2633 -0.6066
vn 0.9275 0.3218 -0.1901
vn 0.9095 0.3094 0.2778
vn 0.9618 0.2667 -0.0623
vn 0.9913 0.1306 0.0190
vn 0.9877 0.1278 -0.0904
vn 0.9577 0.1480 -0.2469
vn 0.8798 0.1198 -0.4601
vn 0.7086 -0.4153 -0.5704
vn -0.7892 0.2579 0.5573
vn -0.7069 -0.0525 0.7053
vn -0.2520 0.0276 0.9673
vn -0.2582 -0.1982 0.9455
vn -0.3400 0.8039 0.4880
vn -0.7947 0.4859 0.3639
vn -0.7055 0.5176 0.4842
vn -0.9192 0.2582 0.2973
vn -0.9038 0.0354 0.4265
vn -0.8473 0.0816 0.5248
vn -0.8124 0.1114 0.5723
vn -0.0631 -0.9656 -0.2523
vn -0.7663 0.3636 -0.5296
vn -0.6957 -0.4326 -0.5734
vn -0.2493 0.2326 -0.9401
vn -0.8286 -0.0615 -0.5564
vn -0.8644 0.5026 0.0143
vn -0.9882 0.1418 -0.0580
vn -0.4338 0.2332 -0.8703
vn -0.5720 0.3101 -0.7594
vn -0.4819 0.3403 -0.8075
vn 0.3265 0.0876 0.9411
vn 0.5032 0.1699 0.8473
vn 0.7180 0.2940 0.6309
vn 0.5623 0.0601 0.8247
vn 0.8059 0.1999 0.5573
vn 0.1686 0.6665 0.7262
vn 0.0882 0.1283 0.9878
vn 0.9457 0.1008 0.3090
vn 0.9476 0.0068 0.3195
vn 0.7645 0.2224 0.6051
vn 0.9605 -0.2578 0.1052
vn 0.7431 0.3206 -0.5874
vn 0.6344 0.1932 -0.7485
vn 0.8992 0.2655 -0.3479
vn 0.9405 -0.0755 -0.3313
vn 0.7252 -0.3054 -0.6171
vn 0.2598 0.1232 -0.9578
vn 0.9907 -0.0094 -0.1358
vn 0.9693 0.1629 0.1840
vn 0.3180 0.9132 0.2549
vn 0.5738 0.7457 0.3385
vn 0.3048 0.9285 0.2119
vn 0.3273 0.8742 -0.3587
vn 0.2808 0.9490 -0.1431
vn 0.2928 0.8680 -0.4010
vn 0.3681 0.3356 -0.8671
vn 0.3034 0.2838 -0.9096
vn 0.1354 0.3697 -0.9192
vn 0.2219 0.9749 -0.0176
vn 0.9454 0.1398 0.2943
vn 0.9961 0.0842 0.0253
vn 0.4186 0.2927 -0.8597
vn 0.0215 -0.9915 -0.1286
vn 0.1322 -0.5334 -0.8355
vn 0.1482 -0.9239 -0.3527
vn 0.2306 -0.5561 -0.7985
vn 0.6911 0.1990 -0.6949
vn 0.6151 0.2577 -0.7452
vn 0.7282 0.2926 -0.6198
vn 0.3657 0.3705 -0.8538
vn 0.3585 0.2744 -0.8923
vn 0.8192 0.2622 -0.5101
vn 0.6792 -0.4711 -0.5627
vn -0.6830 -0.1223 0.7201
vn 0.0153 -0.7187 0.6951
vn -0.8395 0.2628 0.4755
vn -0.0789 0.2390 -0.9678
vn 0.0260 -0.8537 -0.5201
vn -0.7717 0.0493 -0.6340
vn -0.6665 0.3603 -0.6527
vn -0.1874 0.7467 -0.6382
vn -0.0907 0.7403 -0.6661
vn -0.3071 0.2116 -0.9279
vn -0.3823 0.2278 -0.8955
vn -0.4154 0.2579 -0.8723
vn -0.8063 -0.0790 -0.5862
vn 0.4266 0.1880 0.8847
vn 0.5314 0.5765 0.6207
vn -0.0294 0.1935 0.9807
vn 0.6297 0.4910 0.6020
vn 0.7942 0.4896 0.3600
vn 0.8754 -0.0431 0.4815
vn -0.0193 0.0329 0.9993
vn -0.0169 0.6892 0.7244
vn -0.0343 0.6410 0.7667
vn 0.0563 0.5277 0.8476
vn -0.0522 0.8605 0.5067
vn -0.0760 0.7573 0.6486
vn 0.6227 0.5172 0.5872
vn 0.1234 0.2502 -0.9603
vn 0.8055 -0.3853 -0.4502
vn 0.8954 0.2243 -0.3845
vn 0.6876 0.6859 -0.2382
vn 0.2643 0.8428 -0.4689
vn 0.5165 0.3512 -0.7809
vn 0.3100 0.9359 -0.1674
vn 0.4686 0.8830 -0.0264
vn 0.9738 -0.0065 0.2273
vn 0.4540 0.3042 -0.8375
vn 0.5710 0.5149 -0.6394
vn 0.6584 0.7187 -0.2237
vn 0.7406 0.2373 -0.6286
vn 0.6386 -0.4615 -0.6158
vn -0.2327 0.6278 -0.7428
vn -0.3721 0.2408 -0.8964
vn -0.0093 0.0247 0.9997
vn 0.7596 -0.5467 0.3523
s 1
f 3/1/1 2/2/2 4/3/3
f 5/4/4 6/5/5 2/2/2
f 2/2/2 6/5/5 10/6/6
f 4/3/3 2/2/2 10/6/6
f 11/7/7 7/8/8 9/9/9
f 12/10/10 5/4/4 13/11/11
f 30/12/12 12/10/10 13/11/11
f 15/13/13 14/14/14 19/15/15
f 14/14/14 22/16/16 19/15/15
f 20/17/17 23/18/18 24/19/19
f 14/14/14 21/20/20 22/16/16
f 23/18/18 26/21/21 24/19/19
f 26/21/22 25/22/23 139/23/24
f 30/12/12 32/24/25 1/25/26
f 32/26/25 31/27/27 29/28/28
f 28/29/29 29/30/28 41/31/30
f 31/27/27 35/32/31 41/33/30
f 33/34/32 32/35/33 49/36/34
f 34/37/35 36/38/36 31/27/27
f 37/39/37 38/40/38 35/32/31
f 33/34/32 49/36/34 44/41/39
f 33/42/40 39/43/41 34/37/35
f 45/44/42 46/45/43 47/46/44
f 49/36/34 30/47/12 13/48/11
f 122/49/45 50/50/46 11/7/7
f 44/41/39 49/36/34 50/50/46
f 17/51/47 40/52/48 21/20/20
f 21/20/20 51/53/49 22/16/16
f 22/16/16 51/53/49 52/54/50
f 21/20/20 40/52/48 51/53/49
f 40/52/48 45/55/42 51/53/49
f 45/44/42 47/46/44 52/56/50
f 54/57/51 62/58/52 25/22/23
f 55/59/53 53/60/54 25/22/23
f 55/59/53 52/54/50 63/61/55
f 58/62/56 61/63/57 57/64/58
f 59/65/59 57/66/59 61/67/59
f 47/46/44 48/68/60 64/69/61
f 62/58/52 66/70/62 27/71/63
f 27/71/63 66/70/62 67/72/64
f 68/73/65 72/74/66 65/75/67
f 59/76/68 61/63/57 70/77/69
f 71/78/70 70/77/69 264/79/71
f 81/80/72 76/81/73 75/82/74
f 75/82/74 76/81/73 97/83/75
f 76/81/73 77/84/76 74/85/77
f 78/86/78 81/80/72 80/87/79
f 81/80/72 79/88/80 96/89/81
f 82/90/82 97/83/75 69/91/83
f 83/92/84 78/86/78 85/93/85
f 82/90/82 85/93/85 80/87/79
f 83/92/84 86/94/86 78/86/78
f 86/94/86 79/88/80 78/86/78
f 85/93/85 88/95/87 83/92/84
f 90/96/88 86/94/86 83/92/84
f 86/97/89 90/98/90 94/99/91
f 92/100/92 90/101/88 83/102/84
f 87/103/93 92/104/92 83/105/84
f 84/106/94 91/107/95 103/108/96
f 73/109/97 95/110/98 87/103/93
f 95/110/98 92/104/92 87/103/93
f 99/111/99 96/89/81 102/112/100
f 96/89/81 89/113/101 102/112/100
f 89/114/101 103/115/96 102/116/100
f 102/116/100 103/115/96 104/117/102
f 104/118/103 108/119/104 105/120/105
f 107/121/106 106/122/107 108/119/104
f 113/123/108 106/122/107 114/124/109
f 8/125/110 3/1/1 116/126/111
f 9/127/9 8/125/110 118/128/112
f 119/129/113 118/130/112 120/131/114
f 117/132/115 116/126/111 127/133/116
f 118/128/112 117/132/117 120/134/114
f 120/135/114 117/136/117 121/137/118
f 124/138/119 119/129/113 120/131/114
f 125/139/120 122/49/45 123/140/121
f 127/133/116 126/141/122 130/142/123
f 129/143/124 132/144/125 131/145/126
f 129/143/124 133/146/127 132/144/125
f 130/142/123 134/147/128 128/148/129
f 20/17/17 133/146/127 129/143/124
f 133/146/127 24/19/19 138/149/130
f 140/150/131 139/23/24 141/151/132
f 139/23/24 27/71/63 142/152/133
f 128/148/129 134/147/128 145/153/134
f 125/139/120 123/140/121 206/154/135
f 136/155/136 137/156/137 147/157/138
f 148/158/139 137/159/137 140/160/131
f 140/150/131 141/151/132 149/161/140
f 135/162/141 136/163/136 150/164/142
f 147/165/138 148/158/139 151/166/143
f 151/166/143 148/158/139 152/167/144
f 148/158/139 149/168/140 152/167/144
f 142/152/133 67/72/64 158/169/145
f 158/169/145 67/72/64 159/170/146
f 142/152/133 158/169/145 141/151/132
f 141/151/132 160/171/147 149/161/140
f 160/171/147 158/169/145 161/172/148
f 158/169/145 159/170/146 161/172/148
f 160/173/147 163/174/149 162/175/150
f 163/174/149 165/176/151 164/177/152
f 156/178/153 164/177/152 165/176/151
f 166/179/154 171/180/155 169/181/156
f 167/182/157 166/183/154 170/184/158
f 167/182/157 170/184/158 168/185/159
f 174/186/160 173/187/161 168/185/159
f 165/176/151 173/187/161 174/186/160
f 77/84/76 176/188/162 74/85/77
f 98/189/163 177/190/164 143/191/165
f 143/191/165 177/190/164 178/192/166
f 179/193/167 143/191/165 180/194/168
f 143/191/165 178/192/166 180/194/168
f 177/195/164 182/196/169 178/197/166
f 178/197/166 182/196/169 184/198/170
f 183/199/171 170/184/158 179/200/167
f 100/201/172 186/202/173 181/203/174
f 181/203/174 186/202/173 182/196/169
f 182/196/169 186/202/173 184/198/170
f 170/184/158 183/199/171 196/204/175
f 196/204/176 185/205/177 184/206/170
f 188/207/178 189/208/179 187/209/180
f 194/210/181 187/209/180 184/211/182
f 187/212/183 190/213/184 198/214/185
f 175/215/186 170/184/158 196/204/175
f 175/215/186 196/204/175 351/216/187
f 200/217/188 199/218/189 201/219/190
f 199/218/189 111/220/191 202/221/192
f 111/220/191 110/222/193 202/221/192
f 199/218/189 202/221/192 201/219/190
f 200/223/188 203/224/194 195/225/195
f 202/221/192 204/226/196 201/219/190
f 206/154/135 123/140/121 124/138/119
f 206/154/135 124/138/119 207/227/197
f 213/228/198 146/229/199 144/230/200
f 213/228/201 144/230/202 145/231/134
f 208/232/203 207/233/197 146/229/199
f 208/232/203 213/228/198 214/234/204
f 210/235/205 214/234/204 211/236/206
f 212/237/207 210/235/205 211/236/206
f 213/228/201 222/238/208 214/234/209
f 222/238/208 218/239/210 216/240/211
f 224/241/212 218/239/210 223/242/213
f 151/166/143 153/243/214 150/164/142
f 39/43/41 231/244/215 43/245/216
f 233/246/217 232/247/218 234/248/219
f 231/244/215 228/249/220 235/250/221
f 227/251/222 226/252/223 229/253/224
f 228/249/220 227/254/222 230/255/225
f 230/255/225 227/254/222 229/256/224
f 235/250/221 230/255/225 238/257/226
f 38/40/38 233/246/217 42/258/227
f 50/50/46 115/259/228 44/41/39
f 230/255/225 229/256/224 242/260/229
f 238/257/226 230/255/225 242/260/229
f 229/253/224 115/259/228 243/261/230
f 242/260/229 229/256/224 243/262/230
f 240/263/231 237/264/232 239/265/233
f 48/68/60 241/266/234 259/267/235
f 48/68/60 259/267/235 64/69/61
f 60/268/236 247/269/237 254/270/238
f 241/266/234 245/271/239 259/267/235
f 251/272/240 256/273/241 255/274/242
f 251/272/240 250/275/243 253/276/244
f 250/275/243 252/277/245 253/276/244
f 258/278/246 253/279/244 252/280/245
f 264/79/71 265/281/247 73/109/97
f 255/274/242 256/273/241 266/282/248
f 267/283/249 256/284/241 258/278/246
f 94/99/91 93/285/250 280/286/251
f 94/99/91 280/286/251 274/287/252
f 92/104/92 282/288/253 269/289/254
f 95/110/98 265/281/247 282/288/253
f 269/289/254 270/290/255 280/286/251
f 274/291/252 273/292/256 272/293/257
f 271/294/258 270/290/255 276/295/259
f 283/296/260 275/297/261 261/298/262
f 278/299/263 276/300/259 283/301/260
f 277/302/264 278/299/263 279/303/265
f 279/304/265 278/305/263 289/306/266
f 289/307/266 278/299/263 285/308/267
f 287/309/268 292/310/269 293/311/270
f 297/312/271 287/309/268 300/313/272
f 112/314/273 299/315/274 302/316/275
f 300/313/272 301/317/276 298/318/277
f 238/257/226 242/260/229 310/319/278
f 242/260/229 243/262/230 303/320/279
f 310/319/278 242/260/229 303/320/279
f 243/261/230 244/321/280 303/322/279
f 303/322/279 244/321/280 304/323/281
f 304/323/282 244/321/280 308/324/283
f 307/325/284 304/323/285 308/324/283
f 305/326/286 307/327/284 312/328/287
f 313/329/288 306/330/289 312/328/287
f 239/265/233 315/331/290 245/271/239
f 315/332/290 316/333/291 317/334/292
f 246/335/293 317/334/292 257/336/294
f 325/337/295 323/338/296 328/339/297
f 321/340/298 322/341/299 323/338/296
f 155/342/300 157/343/301 334/344/302
f 155/342/300 335/345/303 327/346/304
f 336/347/305 340/348/306 341/349/307
f 336/347/305 341/349/307 338/350/308
f 267/283/249 344/351/309 343/352/310
f 337/353/311 342/354/312 349/355/313
f 350/356/314 351/216/187 352/357/315
f 346/358/316 349/355/313 350/356/314
f 354/359/317 336/347/305 346/360/316
f 346/358/316 350/356/314 355/361/318
f 262/362/319 263/363/320 284/364/321
f 278/299/263 284/364/321 353/365/322
f 371/366/323 347/367/324 348/368/325
f 190/213/326 357/369/327 198/214/185
f 351/216/187 197/370/328 358/371/329
f 359/372/330 357/373/331 356/374/332
f 357/375/327 360/376/333 358/377/334
f 376/378/335 359/372/330 356/374/332
f 352/357/315 351/216/187 364/379/336
f 361/380/337 365/381/338 366/382/339
f 368/383/340 364/379/336 358/371/329
f 371/366/323 348/368/325 355/384/318
f 372/385/341 371/366/323 370/386/342
f 372/387/341 370/388/342 368/389/340
f 291/390/343 373/391/344 374/392/345
f 374/392/346 371/366/323 372/385/341
f 112/314/273 378/393/347 204/394/196
f 204/394/196 378/393/347 381/395/348
f 301/396/276 383/397/349 302/398/350
f 380/399/351 302/400/351 384/401/351
f 384/402/352 382/403/353 376/378/354
f 383/397/355 382/403/355 384/402/355
f 398/404/356 217/405/357 215/406/358
f 389/407/359 388/408/360 385/409/361
f 392/410/362 388/408/360 393/411/363
f 399/412/364 391/413/365 389/407/359
f 387/414/366 392/415/367 395/416/368
f 396/417/369 394/418/370 390/419/371
f 219/420/372 218/239/210 400/421/373
f 400/421/373 218/239/210 224/241/212
f 219/420/372 401/422/374 216/240/211
f 402/423/375 400/421/373 408/424/376
f 401/422/374 219/420/372 400/421/373
f 403/425/377 401/422/374 400/421/373
f 403/425/377 406/426/378 409/427/379
f 405/428/380 406/426/378 403/425/377
f 308/324/283 244/321/280 318/429/381
f 413/430/382 318/429/381 414/431/383
f 414/431/383 318/429/381 415/432/384
f 415/432/384 318/429/381 396/417/369
f 418/433/385 424/434/386 419/435/387
f 426/436/388 418/433/385 416/437/389
f 426/436/388 416/437/389 412/438/390
f 420/439/391 415/440/384 421/441/392
f 309/442/393 308/324/283 417/443/394
f 312/328/287 417/444/394 424/434/386
f 423/445/395 422/446/396 418/433/385
f 418/433/385 422/446/396 424/434/386
f 424/434/386 417/444/394 420/439/391
f 424/434/386 420/439/391 419/435/387
f 427/447/397 320/448/398 322/341/299
f 429/449/399 427/447/397 322/341/299
f 427/447/397 429/449/399 426/436/388
f 311/450/400 425/451/401 316/333/291
f 316/333/291 425/451/401 429/449/399
f 426/436/388 425/451/401 418/433/385
f 257/336/294 317/334/292 329/452/402
f 258/278/246 329/452/402 330/453/403
f 331/454/404 332/455/405 330/453/403
f 421/441/392 415/440/384 430/456/406
f 2/2/2 13/11/11 5/4/4
f 10/6/6 18/457/407 14/14/14
f 11/7/7 13/48/11 7/8/8
f 12/10/10 1/25/26 16/458/408
f 29/28/28 31/27/27 41/33/30
f 32/26/25 33/42/40 34/37/35
f 36/38/36 34/37/35 43/245/216
f 34/37/35 39/43/41 43/245/216
f 44/41/39 39/459/41 33/34/32
f 28/29/29 40/52/48 17/51/47
f 51/53/49 45/55/42 52/54/50
f 53/60/54 54/57/51 25/22/23
f 53/60/54 55/59/53 63/61/55
f 56/460/409 58/62/56 57/64/58
f 58/62/56 64/69/61 60/268/236
f 61/63/57 58/62/56 60/268/236
f 65/75/67 82/90/82 69/91/83
f 57/64/58 59/76/68 70/77/69
f 76/81/73 81/80/72 96/89/81
f 76/81/73 96/89/81 77/84/76
f 80/87/79 81/80/72 75/82/74
f 88/461/410 87/103/93 83/105/84
f 79/88/80 86/94/86 84/462/94
f 88/461/410 71/78/70 73/109/97
f 89/463/101 84/106/94 103/108/96
f 90/98/90 93/285/250 94/99/91
f 100/464/172 102/465/100 105/120/411
f 105/120/412 108/119/413 101/466/414
f 188/207/178 105/120/412 101/466/414
f 101/466/414 108/119/415 106/122/107
f 114/124/109 109/467/416 111/220/417
f 115/259/228 50/50/46 125/139/120
f 209/468/418 125/139/120 206/154/135
f 209/468/418 115/259/228 125/139/120
f 3/1/1 4/3/3 116/126/111
f 121/469/419 117/132/115 128/148/129
f 135/470/141 131/145/126 136/155/136
f 26/21/22 139/23/24 138/149/130
f 141/151/132 139/23/24 142/152/133
f 120/135/114 121/137/118 145/231/420
f 149/168/140 148/158/139 140/160/131
f 147/157/138 137/156/137 148/471/139
f 160/173/147 161/472/148 163/174/149
f 156/178/153 157/343/301 154/473/421
f 172/474/422 166/183/154 167/182/157
f 168/185/159 172/474/422 167/182/157
f 166/179/154 143/191/165 179/193/167
f 177/195/164 99/475/99 181/203/174
f 184/211/182 186/476/423 194/210/181
f 196/204/175 183/199/171 185/205/177
f 193/477/424 199/218/189 200/217/188
f 195/225/195 203/224/194 191/478/425
f 208/232/203 146/229/199 213/228/198
f 209/468/418 206/154/135 207/227/197
f 216/240/211 215/406/358 214/234/209
f 212/479/207 209/468/418 210/480/205
f 217/405/357 212/237/207 211/236/206
f 222/238/208 213/228/201 220/481/426
f 223/242/213 218/239/210 221/482/427
f 218/239/210 219/420/372 216/240/211
f 153/243/214 223/242/213 150/164/142
f 38/40/38 37/39/37 232/247/218
f 227/251/222 228/483/220 226/252/223
f 228/249/220 230/255/225 235/250/221
f 240/263/231 234/248/219 237/264/232
f 115/259/228 226/252/223 44/41/39
f 244/321/280 243/261/230 115/259/228
f 61/63/57 60/268/236 254/270/238
f 247/269/237 259/267/235 248/484/428
f 247/269/237 248/484/428 254/270/238
f 259/267/235 245/271/239 249/485/429
f 249/485/429 250/275/243 251/272/240
f 252/277/245 250/275/430 246/486/293
f 268/487/431 265/281/247 264/79/71
f 264/79/71 254/270/238 255/274/242
f 268/487/431 266/282/248 260/488/432
f 268/487/431 260/488/432 261/298/262
f 263/363/320 262/362/319 267/283/249
f 91/489/95 94/99/91 274/287/252
f 93/285/250 269/289/254 280/286/251
f 280/286/251 270/290/255 271/294/258
f 281/490/433 274/291/252 272/293/257
f 283/296/260 276/295/259 275/297/261
f 286/491/434 292/310/269 287/309/268
f 288/492/435 287/493/268 295/494/436
f 272/495/257 279/304/265 289/306/266
f 291/390/343 289/307/266 285/308/267
f 300/496/272 287/493/268 288/492/435
f 311/497/400 314/498/437 306/499/289
f 306/330/289 310/500/278 305/326/286
f 312/328/287 306/330/289 305/326/286
f 312/328/287 307/327/284 309/501/438
f 323/338/296 325/337/295 321/340/298
f 325/337/295 331/454/404 321/340/298
f 323/338/296 322/341/299 320/448/398
f 338/350/308 337/502/311 336/347/305
f 327/346/304 339/503/439 324/504/440
f 340/348/306 263/363/320 343/352/310
f 333/505/441 339/506/439 338/350/308
f 338/350/308 341/349/307 333/505/441
f 349/507/313 336/347/305 337/502/311
f 354/359/317 340/348/442 336/347/305
f 355/384/318 348/368/325 346/360/316
f 355/361/318 350/356/314 352/357/315
f 284/364/321 263/363/320 340/348/442
f 348/368/325 345/508/443 346/360/316
f 356/509/332 190/213/326 192/510/444
f 198/511/185 357/375/327 358/377/334
f 358/371/329 364/379/336 351/216/187
f 362/512/445 295/494/436 361/380/446
f 365/513/447 296/514/448 369/515/449
f 367/516/450 366/517/339 377/518/451
f 367/516/450 377/518/451 368/389/452
f 366/517/339 369/515/449 377/518/451
f 373/391/344 291/390/343 285/308/267
f 296/519/448 291/390/343 374/392/345
f 381/520/453 205/521/454 204/522/455
f 378/393/347 380/523/456 381/395/348
f 382/403/457 300/496/272 375/524/458
f 376/378/354 382/403/353 375/524/458
f 376/525/335 379/526/459 205/521/454
f 212/479/207 319/527/460 209/468/418
f 217/405/357 385/409/461 212/237/207
f 389/407/359 385/409/361 409/427/379
f 390/419/371 394/418/370 386/528/462
f 392/410/367 387/529/366 388/408/463
f 389/407/359 393/411/363 388/408/360
f 389/407/359 391/413/365 393/411/363
f 396/417/369 318/429/381 394/418/370
f 391/530/365 395/416/464 393/531/363
f 401/422/374 409/427/379 398/404/356
f 402/423/375 403/425/377 400/421/373
f 409/427/379 401/422/374 403/425/377
f 404/532/465 405/533/380 403/534/377
f 405/533/380 407/535/466 406/536/378
f 323/537/296 410/538/467 326/539/468
f 323/537/296 404/540/465 402/423/375
f 413/430/382 308/324/283 318/429/381
f 416/437/389 418/433/385 419/435/387
f 420/439/391 414/541/383 415/440/384
f 416/437/389 419/435/387 421/441/392
f 312/328/287 309/501/438 417/444/394
f 425/451/401 313/329/288 423/445/395
f 425/451/401 423/445/395 418/433/385
f 428/542/469 426/436/388 412/438/390
f 330/453/403 329/452/402 331/454/404
f 330/453/403 332/455/405 333/505/441
f 412/438/390 391/530/365 399/543/364
f 430/456/406 397/544/470 395/416/368
f 7/545/8 13/11/11 2/2/2
f 3/1/1 7/545/8 2/2/2
f 7/545/8 3/1/1 8/125/110
f 4/3/3 10/6/6 15/13/13
f 10/6/6 14/14/14 15/13/13
f 9/9/9 7/8/8 8/546/110
f 10/6/6 6/5/5 18/457/407
f 5/4/4 12/10/10 16/458/408
f 28/29/29 16/458/408 1/25/26
f 6/5/5 17/51/47 18/457/407
f 21/20/20 18/457/407 17/51/47
f 19/15/15 22/16/16 20/17/17
f 62/58/52 139/23/24 25/22/23
f 20/17/17 22/16/16 23/18/18
f 35/32/31 36/38/36 37/39/37
f 1/25/26 29/30/28 28/29/29
f 1/25/26 32/24/25 29/30/28
f 40/52/48 28/29/29 41/31/30
f 49/36/34 32/35/33 30/47/12
f 31/27/27 32/26/25 34/37/35
f 41/33/30 35/32/31 42/258/227
f 42/258/227 45/44/42 40/547/48
f 36/38/36 43/245/216 37/39/37
f 42/258/227 35/32/31 38/40/38
f 40/547/48 41/33/30 42/258/227
f 50/50/46 13/48/11 11/7/7
f 30/12/12 1/25/26 12/10/10
f 23/18/18 52/54/50 55/59/53
f 64/69/61 52/56/50 47/46/44
f 23/18/18 55/59/53 26/21/21
f 55/59/53 25/22/23 26/21/22
f 53/60/54 56/548/471 54/57/51
f 56/548/471 53/60/54 63/61/55
f 58/62/56 63/549/55 64/69/61
f 66/70/62 54/57/51 68/73/65
f 54/550/51 56/460/409 57/64/58
f 68/73/65 67/72/64 66/70/62
f 82/90/82 72/74/66 88/95/87
f 67/72/64 65/75/67 69/91/83
f 68/551/65 57/64/58 70/77/69
f 70/77/69 72/552/66 68/551/65
f 89/113/101 79/88/80 84/462/94
f 72/552/66 71/78/70 88/461/410
f 71/78/70 264/79/71 73/109/97
f 81/80/72 78/86/78 79/88/80
f 82/90/82 80/87/79 97/83/75
f 97/83/75 80/87/79 75/82/74
f 80/87/79 85/93/85 78/86/78
f 91/489/95 86/97/86 94/99/91
f 88/95/87 85/93/85 82/90/82
f 88/461/410 73/109/97 87/103/93
f 116/126/111 15/13/13 127/133/116
f 90/101/88 92/100/92 93/553/472
f 77/84/76 96/89/81 99/111/99
f 98/189/163 77/84/76 99/111/99
f 99/475/99 102/554/100 100/201/172
f 102/465/100 104/118/102 105/120/411
f 108/119/104 104/118/103 107/121/106
f 106/122/107 107/121/106 114/124/109
f 113/123/108 114/124/109 111/220/417
f 111/220/417 109/467/416 110/222/473
f 125/139/120 50/50/46 122/49/45
f 119/129/113 122/49/45 9/9/9
f 118/128/112 8/125/110 116/126/111
f 117/132/117 118/128/112 116/126/111
f 127/133/116 15/13/13 126/141/122
f 119/129/113 9/9/9 118/130/112
f 117/132/115 127/133/116 128/148/129
f 122/49/45 11/7/7 9/9/9
f 129/143/124 19/15/15 20/17/17
f 128/148/129 127/133/116 130/142/123
f 123/140/121 119/129/113 124/138/119
f 15/13/13 19/15/15 126/141/122
f 131/145/126 126/141/122 129/143/124
f 132/144/125 138/149/130 137/156/137
f 133/146/127 20/17/17 24/19/19
f 131/145/126 132/144/125 136/155/136
f 134/147/128 130/142/123 131/145/126
f 134/147/128 131/145/126 135/470/141
f 140/150/131 138/149/130 139/23/24
f 138/149/130 24/19/19 26/21/21
f 145/231/420 124/555/119 120/135/114
f 132/144/125 137/156/137 136/155/136
f 121/137/419 128/556/129 145/231/134
f 147/165/138 150/164/142 136/163/136
f 146/229/199 124/555/119 144/230/200
f 152/167/144 153/243/214 151/166/143
f 154/473/421 225/557/474 153/243/214
f 162/175/150 154/473/421 152/167/144
f 142/152/133 27/71/63 67/72/64
f 67/72/64 69/91/83 159/170/146
f 160/171/147 141/151/132 158/169/145
f 162/175/150 149/168/140 160/173/147
f 149/168/140 162/175/150 152/167/144
f 169/181/156 97/83/75 76/81/73
f 162/175/150 163/174/149 164/177/152
f 156/178/153 154/473/421 164/177/152
f 157/558/475 155/559/475 154/560/475
f 97/83/75 159/170/146 69/91/83
f 169/181/156 76/81/73 74/85/77
f 166/179/154 169/181/156 74/85/77
f 161/172/148 171/180/155 172/561/422
f 173/187/476 161/472/148 172/474/422
f 172/561/422 171/180/155 166/179/154
f 168/185/159 175/215/186 174/186/160
f 173/187/476 172/474/422 168/185/159
f 165/176/151 163/174/149 173/187/161
f 143/191/165 74/85/77 176/188/162
f 176/188/162 77/84/76 98/189/163
f 98/189/163 99/111/99 177/190/164
f 176/188/162 98/189/163 143/191/165
f 183/199/171 178/562/166 185/205/177
f 177/195/164 181/203/174 182/196/169
f 170/184/158 166/183/154 179/200/167
f 179/200/167 180/563/168 183/199/171
f 99/475/99 100/201/172 181/203/174
f 194/210/181 188/207/178 187/209/180
f 185/564/177 178/197/166 184/198/170
f 100/201/172 105/565/411 186/202/173
f 186/476/423 105/120/412 188/207/178
f 193/477/424 101/466/414 106/122/107
f 193/477/424 189/208/179 188/207/178
f 189/566/179 191/478/425 190/213/184
f 196/204/477 184/206/477 197/370/477
f 190/213/184 187/212/183 189/566/179
f 193/477/424 113/123/108 199/218/189
f 198/214/185 184/567/478 187/212/183
f 351/216/187 196/204/175 197/370/328
f 197/568/479 184/569/478 198/570/185
f 192/510/480 190/213/184 191/478/425
f 201/571/481 205/521/482 203/224/194
f 199/218/189 113/123/108 111/220/191
f 195/572/195 193/477/424 200/217/188
f 203/224/483 200/223/483 201/571/483
f 202/221/192 110/222/193 204/226/196
f 110/573/193 112/314/273 204/394/196
f 192/510/480 203/224/194 205/521/482
f 214/234/204 207/233/197 208/232/203
f 146/574/199 207/227/197 124/138/119
f 220/481/426 145/231/134 134/575/128
f 210/480/205 209/468/418 207/227/197
f 215/406/358 211/236/206 214/234/209
f 217/405/357 211/236/206 215/406/358
f 220/481/426 134/575/128 135/162/141
f 153/243/214 224/241/212 223/242/213
f 220/481/426 135/162/141 221/482/427
f 222/238/208 220/481/426 221/482/427
f 218/239/210 222/238/208 221/482/427
f 216/240/211 214/234/209 222/238/208
f 221/482/427 135/162/141 150/164/142
f 223/242/213 221/482/427 150/164/142
f 231/244/215 37/39/37 43/245/216
f 39/43/41 226/576/223 228/249/220
f 38/40/38 232/247/218 233/246/217
f 39/43/41 228/249/220 231/244/215
f 236/577/484 231/244/215 235/250/221
f 234/248/219 236/577/484 237/264/232
f 239/265/233 236/577/484 238/257/226
f 236/577/484 235/250/221 238/257/226
f 46/45/43 233/246/217 240/263/231
f 241/266/234 46/45/43 240/263/231
f 245/271/239 240/263/231 239/265/233
f 233/246/217 234/248/219 240/263/231
f 48/68/60 47/46/44 241/266/234
f 115/259/228 229/253/224 226/252/223
f 60/268/236 259/267/235 247/269/237
f 249/485/429 248/484/428 259/267/235
f 249/485/429 245/271/239 250/275/430
f 255/274/242 248/484/428 251/272/240
f 264/79/71 61/63/57 254/270/238
f 256/273/241 251/272/240 253/276/244
f 250/275/430 245/271/239 246/486/293
f 252/280/245 246/335/293 257/336/294
f 256/284/241 253/279/244 258/278/246
f 266/282/248 264/79/71 255/274/242
f 267/578/249 260/488/432 266/282/248
f 261/579/262 260/580/432 262/362/319
f 281/490/433 91/107/95 274/291/252
f 266/581/248 256/284/241 267/283/249
f 269/582/254 93/553/472 92/100/92
f 265/281/247 275/297/261 282/288/253
f 73/109/97 265/281/247 95/110/98
f 95/110/98 282/288/253 92/104/92
f 274/287/252 280/286/251 271/294/258
f 282/288/253 270/290/255 269/289/254
f 273/583/256 274/287/252 271/294/258
f 275/297/261 270/290/255 282/288/253
f 262/362/319 283/301/260 261/579/262
f 273/583/256 271/294/258 277/584/264
f 273/583/256 277/584/264 272/495/257
f 275/585/261 268/586/431 261/587/262
f 272/495/257 277/584/264 279/304/265
f 277/584/264 271/294/258 276/295/259
f 278/299/263 277/302/264 276/300/259
f 281/588/433 104/117/102 103/115/96
f 278/299/263 283/301/260 284/364/321
f 294/589/485 281/588/433 272/495/257
f 107/590/106 104/117/102 292/310/486
f 107/590/106 292/310/486 286/491/434
f 290/591/487 294/589/485 272/495/257
f 293/311/270 292/310/269 294/589/485
f 293/311/270 294/589/485 295/592/488
f 293/311/489 295/592/436 287/309/268
f 286/491/434 114/593/109 107/590/106
f 290/591/487 272/495/257 289/306/266
f 290/591/487 289/306/266 291/594/343
f 298/318/490 114/593/109 297/312/271
f 299/595/491 109/596/492 298/318/493
f 314/498/437 238/257/226 310/319/278
f 112/314/494 110/573/495 299/315/491
f 286/491/434 287/309/268 297/312/271
f 298/318/277 297/312/271 300/313/272
f 298/318/277 301/317/276 299/595/496
f 299/595/496 301/317/276 302/597/350
f 209/468/418 318/429/381 115/259/228
f 305/598/286 310/319/278 303/320/279
f 314/498/437 310/319/278 306/499/289
f 307/327/284 303/599/279 304/600/285
f 311/450/400 306/330/289 313/329/288
f 305/326/286 303/599/279 307/327/284
f 309/442/393 307/325/284 308/324/283
f 239/265/233 314/498/437 315/331/290
f 246/486/293 245/271/239 315/331/290
f 246/335/293 315/332/290 317/334/292
f 315/332/290 311/450/400 316/333/291
f 315/331/290 314/498/437 311/497/400
f 258/278/246 252/280/245 329/452/402
f 327/346/304 411/601/497 155/342/300
f 244/321/280 115/259/228 318/429/381
f 155/342/300 411/601/497 225/557/474
f 326/539/468 324/504/440 328/602/297
f 342/354/312 156/178/153 165/176/151
f 324/603/440 325/337/295 328/339/297
f 332/455/405 325/337/295 324/603/440
f 320/448/398 404/532/465 323/338/296
f 329/452/402 252/280/245 257/336/294
f 332/455/405 331/454/404 325/337/295
f 335/604/303 338/350/308 339/506/439
f 334/344/302 157/343/301 156/178/153
f 342/354/312 337/353/311 335/345/303
f 342/354/312 335/345/303 334/344/302
f 334/344/302 335/345/303 155/342/300
f 344/351/309 341/349/307 343/352/310
f 335/604/303 339/506/439 327/605/304
f 263/363/320 267/283/249 343/352/310
f 340/348/306 343/352/310 341/349/307
f 344/351/309 258/278/246 330/453/403
f 339/506/439 333/505/441 332/455/405
f 339/506/439 332/455/405 324/603/440
f 349/355/313 165/176/151 174/186/160
f 333/505/441 344/351/309 330/453/403
f 350/356/314 349/355/313 174/186/160
f 175/215/186 350/356/314 174/186/160
f 284/364/321 345/508/443 353/365/498
f 349/355/313 346/358/316 336/606/305
f 354/359/317 284/364/321 340/348/442
f 345/508/443 354/359/317 346/360/316
f 362/512/445 288/492/435 295/494/436
f 285/308/267 278/299/263 353/365/322
f 353/365/498 345/508/443 348/368/325
f 347/367/324 285/308/267 353/365/322
f 347/367/324 353/365/498 348/368/325
f 356/509/332 357/369/327 190/213/326
f 197/370/479 198/607/185 358/371/334
f 362/512/445 376/378/354 375/524/458
f 359/372/499 361/380/337 363/608/500
f 359/372/499 362/512/445 361/380/337
f 363/609/501 360/376/333 357/375/327
f 359/610/330 363/611/502 357/612/331
f 365/381/338 295/494/488 294/613/485
f 358/377/334 367/516/450 368/389/452
f 361/614/337 366/517/339 363/609/500
f 363/609/500 366/517/339 367/516/450
f 352/357/315 370/615/342 355/361/318
f 294/616/485 296/514/448 365/513/447
f 366/517/339 365/513/503 369/515/449
f 372/387/504 369/515/449 296/514/448
f 368/383/340 370/615/342 364/379/336
f 296/617/448 290/591/487 291/594/343
f 302/316/275 378/393/347 112/314/273
f 370/386/342 371/366/323 355/384/318
f 368/389/452 377/518/451 372/387/504
f 373/391/344 285/308/267 347/367/324
f 372/387/504 296/514/448 374/618/345
f 373/391/344 347/367/324 371/366/323
f 374/392/346 373/391/344 371/366/323
f 379/526/459 356/509/332 192/510/444
f 205/521/454 379/526/459 192/510/444
f 382/403/457 301/396/505 300/496/272
f 375/524/458 300/496/272 288/492/435
f 205/521/454 384/619/506 376/525/335
f 380/399/507 384/401/506 381/620/453
f 376/525/335 356/509/332 379/526/459
f 387/621/366 319/527/460 212/479/207
f 384/622/508 302/623/508 383/624/508
f 409/427/379 385/409/361 398/404/356
f 385/409/361 217/405/357 398/404/356
f 216/240/211 398/404/356 215/406/358
f 16/458/408 6/5/5 5/4/4
f 387/529/366 212/237/207 385/409/461
f 388/408/463 387/529/366 385/409/461
f 394/418/370 318/429/381 319/527/460
f 386/528/462 394/418/370 319/527/460
f 387/621/366 390/419/371 386/528/462
f 395/416/368 390/625/371 387/414/366
f 393/531/363 395/416/464 392/415/362
f 397/544/470 390/625/371 395/416/368
f 408/424/376 400/421/373 224/241/212
f 405/533/380 320/448/398 427/447/397
f 402/423/375 404/540/465 403/425/377
f 409/427/379 399/412/364 389/407/359
f 224/241/212 411/601/497 408/424/376
f 405/533/380 427/447/397 407/535/466
f 411/601/497 410/538/467 408/424/376
f 410/538/467 402/423/375 408/424/376
f 317/334/292 331/454/404 329/452/402
f 323/537/296 402/423/375 410/538/467
f 326/539/468 328/602/297 323/537/296
f 414/431/383 417/443/394 413/430/382
f 421/441/392 419/435/387 420/439/391
f 422/446/396 313/329/288 312/328/287
f 417/443/394 308/324/283 413/430/382
f 423/445/395 313/329/288 422/446/396
f 422/446/396 312/328/287 424/434/386
f 417/444/394 414/541/383 420/439/391
f 427/447/397 428/542/469 407/535/466
f 317/334/292 316/333/291 429/449/399
f 427/447/397 426/436/388 428/542/469
f 429/449/399 425/451/401 426/436/388
f 425/451/401 311/450/400 313/329/288
f 322/341/299 331/454/404 429/449/399
f 391/530/365 430/456/509 395/416/464
f 397/544/470 396/626/510 390/625/371
f 430/456/406 396/626/510 397/544/470
f 430/456/509 416/437/389 421/441/392
f 399/543/364 407/535/466 412/438/390
f 407/535/466 428/542/469 412/438/390
f 28/29/29 17/51/47 16/458/408
f 21/20/20 14/14/14 18/457/407
f 62/58/52 27/71/63 139/23/24
f 35/32/31 31/27/27 36/38/36
f 42/258/227 46/45/43 45/44/42
f 50/50/46 49/36/34 13/48/11
f 23/18/18 22/16/16 52/54/50
f 64/69/61 63/549/55 52/56/50
f 58/62/56 56/460/409 63/549/55
f 66/70/62 62/58/52 54/57/51
f 68/73/65 65/75/67 67/72/64
f 82/90/82 65/75/67 72/74/66
f 68/551/65 54/550/51 57/64/58
f 70/77/69 71/78/70 72/552/66
f 89/113/101 96/89/81 79/88/80
f 91/489/95 84/627/94 86/97/86
f 116/126/111 4/3/3 15/13/13
f 119/129/113 123/140/121 122/49/45
f 129/143/124 126/141/122 19/15/15
f 131/145/126 130/142/123 126/141/122
f 132/144/125 133/146/127 138/149/130
f 140/150/131 137/156/137 138/149/130
f 145/231/420 144/230/200 124/555/119
f 147/165/138 151/166/143 150/164/142
f 152/167/144 154/473/421 153/243/214
f 154/473/421 155/342/300 225/557/474
f 162/175/150 164/177/152 154/473/421
f 169/181/156 171/180/155 97/83/75
f 97/83/75 171/180/155 159/170/146
f 161/172/148 159/170/146 171/180/155
f 173/628/476 163/629/149 161/630/148
f 168/185/159 170/184/158 175/215/186
f 143/191/165 166/179/154 74/85/77
f 183/199/171 180/563/511 178/562/166
f 194/210/181 186/476/423 188/207/178
f 193/477/424 188/207/178 101/466/414
f 193/477/424 195/572/195 189/208/179
f 189/566/179 195/225/195 191/478/425
f 193/477/424 106/122/107 113/123/108
f 201/571/481 204/522/512 205/521/482
f 192/510/480 191/478/425 203/224/194
f 214/234/204 210/235/205 207/233/197
f 220/481/426 213/228/201 145/231/134
f 153/243/214 225/557/474 224/241/212
f 231/244/215 232/247/218 37/39/37
f 39/459/41 44/41/39 226/252/223
f 236/577/484 232/247/218 231/244/215
f 234/248/219 232/247/218 236/577/484
f 239/265/233 237/264/232 236/577/484
f 46/45/43 42/258/227 233/246/217
f 241/266/234 47/46/44 46/45/43
f 245/271/239 241/266/234 240/263/231
f 60/268/236 64/69/61 259/267/235
f 249/485/429 251/272/240 248/484/428
f 255/274/242 254/270/238 248/484/428
f 264/79/71 70/77/69 61/63/57
f 266/282/248 268/487/431 264/79/71
f 267/578/249 262/631/319 260/488/432
f 281/490/433 103/108/96 91/107/95
f 265/281/247 268/487/431 275/297/261
f 275/297/261 276/295/259 270/290/255
f 262/362/319 284/364/321 283/301/260
f 281/588/433 292/310/486 104/117/102
f 294/589/485 292/310/269 281/588/433
f 290/591/487 296/617/448 294/589/485
f 286/491/434 297/312/271 114/593/109
f 298/318/490 109/596/513 114/593/109
f 299/595/491 110/632/495 109/596/492
f 314/498/437 239/265/233 238/257/226
f 209/468/418 319/527/460 318/429/381
f 327/346/304 326/539/468 411/601/497
f 326/539/468 327/346/304 324/504/440
f 342/354/312 334/344/302 156/178/153
f 335/604/303 337/502/311 338/350/308
f 344/351/309 333/505/441 341/349/307
f 344/351/309 267/283/249 258/278/246
f 349/355/313 342/354/312 165/176/151
f 175/215/186 351/216/187 350/356/314
f 284/364/321 354/359/317 345/508/443
f 362/512/445 375/524/458 288/492/435
f 362/512/445 359/372/499 376/378/354
f 363/609/501 367/516/450 360/376/333
f 365/381/338 361/380/337 295/494/488
f 358/377/334 360/376/333 367/516/450
f 352/357/315 364/379/336 370/615/342
f 372/387/504 377/518/451 369/515/449
f 302/316/275 380/523/456 378/393/347
f 382/403/514 383/397/514 301/396/514
f 205/521/454 381/520/453 384/619/506
f 387/621/366 386/528/462 319/527/460
f 216/240/211 401/422/374 398/404/356
f 16/458/408 17/51/47 6/5/5
f 405/533/380 404/532/465 320/448/398
f 409/427/379 406/426/378 399/412/364
f 224/241/212 225/557/474 411/601/497
f 411/601/497 326/539/468 410/538/467
f 317/334/292 429/449/399 331/454/404
f 322/341/299 321/340/298 331/454/404
f 391/530/365 412/438/390 430/456/509
f 430/456/406 415/440/384 396/626/510
f 430/456/509 412/438/390 416/437/389
f 399/543/364 406/536/378 407/535/466
